y,x,type
0.28,10,taktuk
1.37,10,router
0.46,20,taktuk
1.53,20,router
0.47,30,taktuk
1.54,30,router
0.48,40,taktuk
1.56,40,router
0.49,50,taktuk
1.57,50,router
1.49,60,taktuk
2.53,60,router
1.50,70,taktuk
2.53,70,router
1.51,80,taktuk
2.56,80,router
1.53,90,taktuk
2.57,90,router
1.56,100,taktuk
2.60,100,router
1.58,110,taktuk
2.61,110,router
1.58,120,taktuk
2.63,120,router
1.69,130,taktuk
2.72,130,router
1.69,140,taktuk
2.73,140,router
1.70,150,taktuk
2.74,150,router
1.71,160,taktuk
2.77,160,router
1.75,170,taktuk
2.77,170,router
1.74,180,taktuk
2.79,180,router
1.74,190,taktuk
2.80,190,router
1.76,200,taktuk
2.83,200,router
1.79,210,taktuk
2.85,210,router
1.85,220,taktuk
2.86,220,router
1.83,230,taktuk
2.87,230,router
1.86,240,taktuk
2.88,240,router
1.87,250,taktuk
2.93,250,router
1.87,260,taktuk
2.93,260,router
1.87,270,taktuk
2.97,270,router
1.90,280,taktuk
3.02,280,router
1.91,290,taktuk
2.99,290,router
1.96,300,taktuk
3.01,300,router
1.95,310,taktuk
3.02,310,router
6.89,320,taktuk
3.04,320,router
2.00,330,taktuk
3.06,330,router
2.02,340,taktuk
3.09,340,router
2.02,350,taktuk
3.10,350,router
2.06,360,taktuk
3.15,360,router
2.09,370,taktuk
3.14,370,router
2.10,380,taktuk
3.20,380,router
2.13,390,taktuk
3.19,390,router
2.17,400,taktuk
3.21,400,router
2.15,410,taktuk
3.24,410,router
2.17,420,taktuk
3.29,420,router
2.21,430,taktuk
3.28,430,router
6.89,440,taktuk
3.30,440,router
3.21,450,taktuk
3.32,450,router
3.27,460,taktuk
3.34,460,router
2.30,470,taktuk
3.39,470,router
2.30,480,taktuk
3.38,480,router
2.34,490,taktuk
3.41,490,router
2.34,500,taktuk
3.43,500,router
2.37,510,taktuk
3.43,510,router
2.40,520,taktuk
3.48,520,router
3.36,530,taktuk
3.47,530,router
2.44,540,taktuk
3.54,540,router
2.42,550,taktuk
3.53,550,router
2.45,560,taktuk
3.53,560,router
2.51,570,taktuk
3.56,570,router
2.53,580,taktuk
3.59,580,router
2.53,590,taktuk
3.61,590,router
2.53,600,taktuk
3.63,600,router
2.57,610,taktuk
3.66,610,router
2.60,620,taktuk
3.67,620,router
2.62,630,taktuk
3.70,630,router
2.63,640,taktuk
3.72,640,router
2.65,650,taktuk
3.73,650,router
2.66,660,taktuk
3.72,660,router
2.73,670,taktuk
3.76,670,router
2.71,680,taktuk
3.79,680,router
2.72,690,taktuk
3.80,690,router
3.71,700,taktuk
3.90,700,router
2.74,710,taktuk
3.87,710,router
2.80,720,taktuk
3.90,720,router
2.78,730,taktuk
3.90,730,router
3.78,740,taktuk
3.91,740,router
2.82,750,taktuk
3.93,750,router
3.82,760,taktuk
3.96,760,router
2.93,770,taktuk
4.01,770,router
2.91,780,taktuk
4.00,780,router
3.91,790,taktuk
4.04,790,router
3.91,800,taktuk
4.05,800,router
2.97,810,taktuk
4.04,810,router
3.93,820,taktuk
4.07,820,router
3.06,830,taktuk
4.11,830,router
3.99,840,taktuk
4.12,840,router
3.05,850,taktuk
4.15,850,router
4.01,860,taktuk
4.19,860,router
3.13,870,taktuk
4.27,870,router
3.12,880,taktuk
4.24,880,router
3.12,890,taktuk
4.24,890,router
3.11,900,taktuk
4.27,900,router
4.10,910,taktuk
4.36,910,router
3.17,920,taktuk
4.32,920,router
3.23,930,taktuk
4.33,930,router
3.20,940,taktuk
4.34,940,router
4.19,950,taktuk
8.54,950,router
7.52,960,taktuk
4.42,960,router
3.30,970,taktuk
9.23,970,router
3.27,980,taktuk
4.45,980,router
3.33,990,taktuk
4.49,990,router
3.32,1000,taktuk
4.47,1000,router
3.39,1010,taktuk
4.52,1010,router
8.17,1020,taktuk
4.59,1020,router
4.38,1030,taktuk
8.60,1030,router
7.22,1040,taktuk
4.54,1040,router
3.38,1050,taktuk
4.61,1050,router
3.45,1060,taktuk
4.65,1060,router
8.07,1070,taktuk
4.69,1070,router
3.57,1080,taktuk
8.70,1080,router
3.47,1090,taktuk
4.77,1090,router
8.98,1100,taktuk
4.72,1100,router
4.52,1110,taktuk
4.76,1110,router
7.49,1120,taktuk
4.78,1120,router
3.62,1130,taktuk
9.27,1130,router
7.79,1140,taktuk
4.83,1140,router
3.68,1150,taktuk
4.86,1150,router
7.75,1160,taktuk
4.84,1160,router
4.65,1170,taktuk
4.89,1170,router
7.54,1180,taktuk
4.95,1180,router
4.70,1190,taktuk
4.92,1190,router
6.64,1200,taktuk
4.91,1200,router
3.82,1210,taktuk
4.95,1210,router
8.31,1220,taktuk
5.01,1220,router
3.79,1230,taktuk
8.57,1230,router
8.42,1240,taktuk
5.02,1240,router
4.81,1250,taktuk
8.47,1250,router
4.85,1260,taktuk
5.14,1260,router
4.93,1270,taktuk
5.11,1270,router
3.97,1280,taktuk
5.15,1280,router
18.09,1290,taktuk
5.16,1290,router
3.99,1300,taktuk
5.16,1300,router
8.00,1310,taktuk
5.21,1310,router
4.92,1320,taktuk
8.89,1320,router
3.99,1330,taktuk
5.20,1330,router
7.98,1340,taktuk
5.23,1340,router
5.03,1350,taktuk
8.86,1350,router
4.10,1360,taktuk
5.33,1360,router
6.86,1370,taktuk
5.32,1370,router
4.10,1380,taktuk
14.94,1380,router
11.69,1390,taktuk
5.41,1390,router
5.14,1400,taktuk
5.38,1400,router
4.22,1410,taktuk
5.41,1410,router
4.31,1420,taktuk
5.42,1420,router
5.27,1430,taktuk
5.49,1430,router
5.21,1440,taktuk
5.50,1440,router
4.28,1450,taktuk
5.46,1450,router
4.28,1460,taktuk
5.52,1460,router
4.28,1470,taktuk
5.55,1470,router
4.31,1480,taktuk
5.57,1480,router
5.33,1490,taktuk
5.58,1490,router
4.37,1500,taktuk
5.58,1500,router
5.35,1510,taktuk
5.64,1510,router
4.45,1520,taktuk
5.63,1520,router
5.31,1530,taktuk
5.72,1530,router
4.54,1540,taktuk
5.70,1540,router
5.45,1550,taktuk
5.74,1550,router
5.44,1560,taktuk
5.74,1560,router
5.43,1570,taktuk
5.83,1570,router
5.46,1580,taktuk
5.87,1580,router
4.53,1590,taktuk
5.81,1590,router
5.50,1600,taktuk
5.82,1600,router
5.54,1610,taktuk
5.78,1610,router
4.56,1620,taktuk
5.83,1620,router
4.63,1630,taktuk
5.90,1630,router
7.50,1640,taktuk
6.00,1640,router
4.63,1650,taktuk
9.49,1650,router
4.82,1660,taktuk
5.97,1660,router
5.64,1670,taktuk
5.98,1670,router
5.68,1680,taktuk
6.15,1680,router
4.87,1690,taktuk
9.43,1690,router
4.85,1700,taktuk
6.06,1700,router
4.84,1710,taktuk
6.12,1710,router
5.82,1720,taktuk
6.06,1720,router
5.89,1730,taktuk
6.11,1730,router
5.83,1740,taktuk
14.28,1740,router
5.83,1750,taktuk
6.23,1750,router
5.86,1760,taktuk
6.22,1760,router
5.83,1770,taktuk
6.21,1770,router
5.92,1780,taktuk
6.21,1780,router
5.93,1790,taktuk
16.02,1790,router
5.05,1800,taktuk
6.27,1800,router
5.89,1810,taktuk
6.39,1810,router
6.07,1820,taktuk
21.06,1820,router
5.01,1830,taktuk
15.87,1830,router
6.11,1840,taktuk
6.50,1840,router
6.02,1850,taktuk
20.89,1850,router
5.07,1860,taktuk
16.01,1860,router
5.20,1870,taktuk
6.46,1870,router
5.17,1880,taktuk
6.51,1880,router
6.06,1890,taktuk
6.55,1890,router
5.13,1900,taktuk
6.58,1900,router
6.17,1910,taktuk
6.54,1910,router
5.26,1920,taktuk
10.86,1920,router
5.33,1930,taktuk
6.57,1930,router
5.40,1940,taktuk
9.79,1940,router
5.35,1950,taktuk
6.62,1950,router
6.15,1960,taktuk
6.68,1960,router
6.16,1970,taktuk
15.78,1970,router
5.35,1980,taktuk
15.78,1980,router
5.44,1990,taktuk
6.81,1990,router
5.32,2000,taktuk
6.76,2000,router
