x;y;type
5;0.5050764083862305;connect
5;0.23369336128234863;network up
5;0.10096526145935059;network updated
5;0.10407805442810059;command executed
10;0.5047593116760254;connect
10;0.260235071182251;network up
10;0.10095572471618652;network updated
10;0.10668826103210449;command executed
15;0.5051708221435547;connect
15;0.4197812080383301;network up
15;0.10092616081237793;network updated
15;0.10951876640319824;command executed
20;0.5050814151763916;connect
20;0.4295954704284668;network up
20;0.10093259811401367;network updated
20;0.11224102973937988;command executed
25;0.5048737525939941;connect
25;0.43717002868652344;network up
25;0.10096192359924316;network updated
25;0.11454081535339355;command executed
30;0.5049271583557129;connect
30;0.4556996822357178;network up
30;0.10095953941345215;network updated
30;0.1168982982635498;command executed
35;0.5050880908966064;connect
35;0.4755096435546875;network up
35;0.1009671688079834;network updated
35;0.11986494064331055;command executed
40;0.5050768852233887;connect
40;0.498349666595459;network up
40;0.10098981857299805;network updated
40;0.12214303016662598;command executed
45;0.5051372051239014;connect
45;0.520702600479126;network up
45;0.10098910331726074;network updated
45;0.12491035461425781;command executed
50;0.5046548843383789;connect
50;0.5388593673706055;network up
50;0.10095477104187012;network updated
50;1.0845592021942139;command executed
55;0.5048630237579346;connect
55;0.5723013877868652;network up
55;0.10102438926696777;network updated
55;1.0889766216278076;command executed
60;0.5051593780517578;connect
60;0.5852947235107422;network up
60;0.10098958015441895;network updated
60;1.0913152694702148;command executed
65;0.5048692226409912;connect
65;0.6100132465362549;network up
65;0.10102081298828125;network updated
65;1.0952630043029785;command executed
70;0.5051233768463135;connect
70;0.6601741313934326;network up
70;0.10100889205932617;network updated
70;1.0963613986968994;command executed
75;0.5050933361053467;connect
75;0.6867165565490723;network up
75;0.10100245475769043;network updated
75;1.100431203842163;command executed
80;0.504936695098877;connect
80;0.7144160270690918;network up
80;0.10100722312927246;network updated
80;1.1021454334259033;command executed
85;0.504901647567749;connect
85;0.7705023288726807;network up
85;0.10100007057189941;network updated
85;1.1065847873687744;command executed
90;0.5048642158508301;connect
90;0.8034048080444336;network up
90;0.10100102424621582;network updated
90;1.1084768772125244;command executed
95;0.5048284530639648;connect
95;0.8737716674804688;network up
95;0.10100364685058594;network updated
95;1.1123480796813965;command executed
100;0.5047965049743652;connect
100;0.917222261428833;network up
100;0.10101580619812012;network updated
100;1.1143712997436523;command executed
