x;y;type
40;0.5049889087677002;connect
40;0.5059814453125;spawn request received
40;0.506443977355957;spawn request send to taktuk
40;0.85616135597229;node appear
40;0.8571839332580566;node appear
40;0.8628270626068115;node appear
40;0.8654255867004395;node appear
40;0.8654918670654297;node appear
40;0.8662102222442627;node appear
40;0.868938684463501;node appear
40;0.8763656616210938;node spawned
40;0.8766262531280518;node spawned
40;0.8766880035400391;node appear
40;0.8767082691192627;node spawned
40;0.8769750595092773;node spawned
40;0.8770389556884766;node appear
40;0.8770589828491211;node spawned
40;0.8771176338195801;node spawned
40;0.8771653175354004;node appear
40;0.8771834373474121;node spawned
40;0.8772304058074951;node appear
40;0.8772494792938232;node spawned
40;0.877302885055542;node spawned
40;0.877349853515625;node appear
40;0.8773679733276367;node spawned
40;0.8774206638336182;node spawned
40;0.8774669170379639;node appear
40;0.8774847984313965;node spawned
40;0.8777346611022949;node appear
40;0.8777623176574707;node spawned
40;0.8778257369995117;node spawned
40;0.8778731822967529;node appear
40;0.8778910636901855;node spawned
40;0.8779380321502686;node appear
40;0.8779563903808594;node spawned
40;0.8780081272125244;node appear
40;0.8780267238616943;node spawned
40;0.8780725002288818;node appear
40;0.8780908584594727;node spawned
40;0.8781380653381348;node appear
40;0.8781559467315674;node spawned
40;0.8782017230987549;node appear
40;0.8782196044921875;node spawned
40;0.8782663345336914;node appear
40;0.8782854080200195;node spawned
40;0.8783340454101562;node appear
40;0.8783533573150635;node spawned
40;0.878399133682251;node appear
40;0.8784167766571045;node spawned
40;0.8784682750701904;node appear
40;0.8784866333007812;node spawned
40;0.8785336017608643;node appear
40;0.8785514831542969;node spawned
40;0.8785965442657471;node appear
40;0.8786144256591797;node spawned
40;0.8786599636077881;node appear
40;0.8786776065826416;node spawned
40;0.8787236213684082;node appear
40;0.8787415027618408;node spawned
40;0.8787870407104492;node appear
40;0.8788046836853027;node spawned
40;0.8788492679595947;node appear
40;0.8788669109344482;node spawned
40;0.8789193630218506;node spawned
40;0.8791680335998535;node appear
40;0.8791956901550293;node spawned
40;0.8792541027069092;node appear
40;0.8792726993560791;node spawned
40;0.8793206214904785;node appear
40;0.8793387413024902;node spawned
40;0.8793861865997314;node appear
40;0.8794040679931641;node spawned
40;0.8794503211975098;node appear
40;0.8794679641723633;node spawned
40;0.8795123100280762;node appear
40;0.8795301914215088;node spawned
40;0.879575252532959;node appear
40;0.8795926570892334;node spawned
40;0.8796377182006836;node appear
40;0.8796553611755371;node spawned
40;0.8796994686126709;node appear
40;0.8797171115875244;node spawned
40;0.8797218799591064;network ready
40;0.8798761367797852;network ready -> callback handled
40;0.8799424171447754;node appear
40;0.8799636363983154;node spawned
40;0.8807675838470459;network up
40;0.9845418930053711;network updated
40;2.064380168914795;command executed
41;0.5051798820495605;connect
41;0.5062832832336426;spawn request received
41;0.5067496299743652;spawn request send to taktuk
41;0.8534555435180664;node appear
41;0.8551228046417236;node appear
41;0.8582379817962646;node appear
41;0.8595726490020752;node appear
41;0.8635318279266357;node appear
41;0.8639345169067383;node appear
41;0.8679614067077637;node appear
41;0.8683013916015625;node appear
41;0.8700509071350098;node appear
41;0.8729000091552734;node appear
41;0.8840670585632324;node spawned
41;0.8843357563018799;node spawned
41;0.8843975067138672;node appear
41;0.88442063331604;node spawned
41;0.884479284286499;node spawned
41;0.8847463130950928;node appear
41;0.8847746849060059;node spawned
41;0.8848440647125244;node spawned
41;0.8848986625671387;node appear
41;0.8849179744720459;node spawned
41;0.8849802017211914;node spawned
41;0.8850300312042236;node appear
41;0.8850498199462891;node spawned
41;0.8851044178009033;node spawned
41;0.8851521015167236;node appear
41;0.8851704597473145;node spawned
41;0.8852245807647705;node spawned
41;0.8852744102478027;node appear
41;0.8852925300598145;node spawned
41;0.8855421543121338;node appear
41;0.8855705261230469;node spawned
41;0.8856282234191895;node appear
41;0.8856480121612549;node spawned
41;0.8856992721557617;node appear
41;0.885718584060669;node spawned
41;0.8857738971710205;node spawned
41;0.8858222961425781;node appear
41;0.885840654373169;node spawned
41;0.8858888149261475;node appear
41;0.8859083652496338;node spawned
41;0.8859560489654541;node appear
41;0.885974645614624;node spawned
41;0.8860225677490234;node appear
41;0.8860409259796143;node spawned
41;0.8860883712768555;node appear
41;0.8861064910888672;node spawned
41;0.8861536979675293;node appear
41;0.886171817779541;node spawned
41;0.8862259387969971;node spawned
41;0.8862743377685547;node appear
41;0.8862924575805664;node spawned
41;0.8863439559936523;node appear
41;0.8863627910614014;node spawned
41;0.8864092826843262;node appear
41;0.8864274024963379;node spawned
41;0.8864812850952148;node spawned
41;0.8865289688110352;node appear
41;0.8865470886230469;node spawned
41;0.8865931034088135;node appear
41;0.8866112232208252;node spawned
41;0.8866651058197021;node spawned
41;0.8867144584655762;node appear
41;0.8867325782775879;node spawned
41;0.8867807388305664;node appear
41;0.8867988586425781;node spawned
41;0.8868458271026611;node appear
41;0.8868637084960938;node spawned
41;0.8871159553527832;node appear
41;0.8871443271636963;node spawned
41;0.8872013092041016;node appear
41;0.8872196674346924;node spawned
41;0.8872685432434082;node appear
41;0.887286901473999;node spawned
41;0.8873343467712402;node appear
41;0.887352705001831;node spawned
41;0.8873996734619141;node appear
41;0.8874175548553467;node spawned
41;0.8874638080596924;node appear
41;0.887481689453125;node spawned
41;0.8875391483306885;node appear
41;0.8875579833984375;node spawned
41;0.8875627517700195;network ready
41;0.8877182006835938;network ready -> callback handled
41;0.8877787590026855;node appear
41;0.8877997398376465;node spawned
41;0.8886604309082031;network up
41;0.9924976825714111;network updated
41;2.0722908973693848;command executed
42;0.5051581859588623;connect
42;0.5062515735626221;spawn request received
42;0.5067412853240967;spawn request send to taktuk
42;0.8556139469146729;node appear
42;0.8584744930267334;node appear
42;0.8612058162689209;node appear
42;0.8619756698608398;node appear
42;0.8624024391174316;node appear
42;0.8627519607543945;node appear
42;0.8663158416748047;node appear
42;0.8686380386352539;node appear
42;0.8704893589019775;node appear
42;0.8865797519683838;node spawned
42;0.8868556022644043;node spawned
42;0.8869199752807617;node appear
42;0.886939525604248;node spawned
42;0.8871936798095703;node appear
42;0.8872222900390625;node spawned
42;0.8872854709625244;node appear
42;0.8873040676116943;node spawned
42;0.8873589038848877;node appear
42;0.8873775005340576;node spawned
42;0.8874359130859375;node spawned
42;0.8874855041503906;node appear
42;0.8875033855438232;node spawned
42;0.8875551223754883;node appear
42;0.8875725269317627;node spawned
42;0.8876192569732666;node appear
42;0.887636661529541;node spawned
42;0.8876852989196777;node appear
42;0.8877027034759521;node spawned
42;0.8877553939819336;node spawned
42;0.8880047798156738;node appear
42;0.8880336284637451;node spawned
42;0.8880875110626221;node appear
42;0.8881058692932129;node spawned
42;0.888157844543457;node appear
42;0.8881757259368896;node spawned
42;0.8882262706756592;node appear
42;0.8882455825805664;node spawned
42;0.8883001804351807;node spawned
42;0.888347864151001;node appear
42;0.8883659839630127;node spawned
42;0.8884139060974121;node appear
42;0.8884315490722656;node spawned
42;0.8884780406951904;node appear
42;0.888495922088623;node spawned
42;0.8885459899902344;node appear
42;0.8885633945465088;node spawned
42;0.8886175155639648;node spawned
42;0.888667106628418;node appear
42;0.8886842727661133;node spawned
42;0.8887343406677246;node appear
42;0.8887522220611572;node spawned
42;0.8888063430786133;node spawned
42;0.8888542652130127;node appear
42;0.8888721466064453;node spawned
42;0.888923168182373;node appear
42;0.8889412879943848;node spawned
42;0.8889946937561035;node spawned
42;0.8890430927276611;node appear
42;0.8890602588653564;node spawned
42;0.8891141414642334;node spawned
42;0.8891620635986328;node appear
42;0.8891794681549072;node spawned
42;0.8892269134521484;node appear
42;0.8892443180084229;node spawned
42;0.8892974853515625;node spawned
42;0.8893458843231201;node appear
42;0.8893640041351318;node spawned
42;0.8896136283874512;node appear
42;0.8896405696868896;node spawned
42;0.8897068500518799;node appear
42;0.8897261619567871;node spawned
42;0.8897745609283447;node appear
42;0.8897924423217773;node spawned
42;0.8898391723632812;node appear
42;0.8898568153381348;node spawned
42;0.8899023532867432;node appear
42;0.8899197578430176;node spawned
42;0.8899650573730469;node appear
42;0.8899824619293213;node spawned
42;0.8900284767150879;node appear
42;0.8900461196899414;node spawned
42;0.890092134475708;node appear
42;0.8901097774505615;node spawned
42;0.8901145458221436;network ready
42;0.8902828693389893;network ready -> callback handled
42;0.890343427658081;node appear
42;0.8903634548187256;node spawned
42;0.8912253379821777;network up
42;0.9951026439666748;network updated
42;2.0759828090667725;command executed
43;0.505232572555542;connect
43;0.5062024593353271;spawn request received
43;0.5066876411437988;spawn request send to taktuk
43;0.8578181266784668;node appear
43;0.8594624996185303;node appear
43;0.8604533672332764;node appear
43;0.8610241413116455;node appear
43;0.8636488914489746;node appear
43;0.865941047668457;node appear
43;0.8780558109283447;node appear
43;0.8814408779144287;node appear
43;0.8817996978759766;node appear
43;0.8844447135925293;node spawned
43;0.8847184181213379;node spawned
43;0.8847861289978027;node appear
43;0.8848052024841309;node spawned
43;0.8848621845245361;node spawned
43;0.88511061668396;node appear
43;0.8851397037506104;node spawned
43;0.8852052688598633;node appear
43;0.8852243423461914;node spawned
43;0.8852748870849609;node appear
43;0.8852934837341309;node spawned
43;0.8853521347045898;node spawned
43;0.8854014873504639;node appear
43;0.885420560836792;node spawned
43;0.8854682445526123;node appear
43;0.8854858875274658;node spawned
43;0.8855488300323486;node spawned
43;0.8855979442596436;node appear
43;0.8856160640716553;node spawned
43;0.8856635093688965;node appear
43;0.8856813907623291;node spawned
43;0.8857278823852539;node appear
43;0.8857455253601074;node spawned
43;0.8860650062561035;node spawned
43;0.8861188888549805;node appear
43;0.8861370086669922;node spawned
43;0.8861844539642334;node appear
43;0.886202335357666;node spawned
43;0.8862502574920654;node appear
43;0.8862700462341309;node spawned
43;0.8863179683685303;node appear
43;0.8863358497619629;node spawned
43;0.8863875865936279;node appear
43;0.8864052295684814;node spawned
43;0.8864574432373047;node appear
43;0.8864753246307373;node spawned
43;0.8865227699279785;node appear
43;0.886540412902832;node spawned
43;0.8865878582000732;node appear
43;0.8866055011749268;node spawned
43;0.886652946472168;node appear
43;0.8866705894470215;node spawned
43;0.886716365814209;node appear
43;0.8867340087890625;node spawned
43;0.8867807388305664;node appear
43;0.886798620223999;node spawned
43;0.8868458271026611;node appear
43;0.8868634700775146;node spawned
43;0.8869092464447021;node appear
43;0.8869264125823975;node spawned
43;0.8872449398040771;node spawned
43;0.8872950077056885;node appear
43;0.8873136043548584;node spawned
43;0.8873629570007324;node appear
43;0.8873803615570068;node spawned
43;0.8882081508636475;node spawned
43;0.8884716033935547;node appear
43;0.8884994983673096;node spawned
43;0.8887543678283691;node appear
43;0.8887815475463867;node spawned
43;0.8888413906097412;node appear
43;0.8888602256774902;node spawned
43;0.8894562721252441;node spawned
43;0.8897247314453125;node appear
43;0.8897526264190674;node spawned
43;0.8900082111358643;node appear
43;0.89003586769104;node spawned
43;0.8925862312316895;node spawned
43;0.8928303718566895;node appear
43;0.8928520679473877;node spawned
43;0.8931043148040771;node appear
43;0.893134593963623;node spawned
43;0.8931877613067627;node appear
43;0.8932061195373535;node spawned
43;0.8932545185089111;node appear
43;0.8932723999023438;node spawned
43;0.8932774066925049;network ready
43;0.8934323787689209;network ready -> callback handled
43;0.8934917449951172;node appear
43;0.8935225009918213;node spawned
43;0.894263505935669;network up
43;0.9984405040740967;network updated
43;1.1221015453338623;command executed
44;0.504986047744751;connect
44;0.505964994430542;spawn request received
44;0.506467342376709;spawn request send to taktuk
44;0.8556070327758789;node appear
44;0.8572409152984619;node appear
44;0.8590645790100098;node appear
44;0.8627462387084961;node appear
44;0.8629951477050781;node appear
44;0.8644740581512451;node appear
44;0.8675477504730225;node appear
44;0.872051477432251;node appear
44;0.8778910636901855;node appear
44;0.879650354385376;node spawned
44;0.8797187805175781;node spawned
44;0.8797764778137207;node spawned
44;0.879831075668335;node spawned
44;0.8799326419830322;node spawned
44;0.8799867630004883;node spawned
44;0.8800358772277832;node appear
44;0.8800549507141113;node spawned
44;0.8802907466888428;node appear
44;0.8803136348724365;node spawned
44;0.8803730010986328;node spawned
44;0.8804254531860352;node appear
44;0.8804440498352051;node spawned
44;0.8804924488067627;node appear
44;0.8805108070373535;node spawned
44;0.8805577754974365;node appear
44;0.8805756568908691;node spawned
44;0.8806231021881104;node appear
44;0.8806416988372803;node spawned
44;0.8806893825531006;node appear
44;0.8807082176208496;node spawned
44;0.880756139755249;node appear
44;0.8807742595672607;node spawned
44;0.8808248043060303;node appear
44;0.8808434009552002;node spawned
44;0.8808951377868652;node appear
44;0.880913496017456;node spawned
44;0.8809645175933838;node appear
44;0.8809828758239746;node spawned
44;0.8810348510742188;node appear
44;0.8810546398162842;node spawned
44;0.881101131439209;node appear
44;0.881119966506958;node spawned
44;0.8811662197113037;node appear
44;0.8811848163604736;node spawned
44;0.8812317848205566;node appear
44;0.8812496662139893;node spawned
44;0.8812961578369141;node appear
44;0.8813142776489258;node spawned
44;0.881361722946167;node appear
44;0.8813798427581787;node spawned
44;0.8816120624542236;node appear
44;0.8816325664520264;node spawned
44;0.8816847801208496;node appear
44;0.8817031383514404;node spawned
44;0.8817524909973145;node appear
44;0.8817708492279053;node spawned
44;0.8818190097808838;node appear
44;0.8818376064300537;node spawned
44;0.8818926811218262;node spawned
44;0.8819408416748047;node appear
44;0.8819589614868164;node spawned
44;0.8820066452026367;node appear
44;0.8820245265960693;node spawned
44;0.8820717334747314;node appear
44;0.8820898532867432;node spawned
44;0.8821432590484619;node spawned
44;0.882190465927124;node appear
44;0.8822081089019775;node spawned
44;0.8822619915008545;node spawned
44;0.8823106288909912;node appear
44;0.882328987121582;node spawned
44;0.8823769092559814;node appear
44;0.8823950290679932;node spawned
44;0.882441520690918;node appear
44;0.8824596405029297;node spawned
44;0.8825058937072754;node appear
44;0.882523775100708;node spawned
44;0.8825705051422119;node appear
44;0.8825883865356445;node spawned
44;0.8826351165771484;node appear
44;0.8826532363891602;node spawned
44;0.8826994895935059;node appear
44;0.8827171325683594;node spawned
44;0.8827629089355469;node appear
44;0.8827807903289795;node spawned
44;0.8828268051147461;node appear
44;0.8828465938568115;node spawned
44;0.8828513622283936;network ready
44;0.8829882144927979;network ready -> callback handled
44;0.8830480575561523;node appear
44;0.8830685615539551;node spawned
44;0.8837494850158691;network up
44;0.9879746437072754;network updated
44;2.0702881813049316;command executed
45;0.5052459239959717;connect
45;0.5062265396118164;spawn request received
45;0.5067315101623535;spawn request send to taktuk
45;0.8573589324951172;node appear
45;0.8582763671875;node appear
45;0.8590846061706543;node appear
45;0.8603034019470215;node appear
45;0.861769437789917;node appear
45;0.8636014461517334;node appear
45;0.8653461933135986;node appear
45;0.8673787117004395;node appear
45;0.8692772388458252;node appear
45;0.8894257545471191;node spawned
45;0.8897049427032471;node spawned
45;0.8897693157196045;node appear
45;0.889789342880249;node spawned
45;0.8898398876190186;node appear
45;0.889859676361084;node spawned
45;0.890108585357666;node appear
45;0.8901360034942627;node spawned
45;0.8901972770690918;node appear
45;0.8902153968811035;node spawned
45;0.8902633190155029;node appear
45;0.8902807235717773;node spawned
45;0.890338659286499;node spawned
45;0.8903939723968506;node appear
45;0.8904116153717041;node spawned
45;0.8904623985290527;node appear
45;0.8904802799224854;node spawned
45;0.8905284404754639;node appear
45;0.8905458450317383;node spawned
45;0.8905918598175049;node appear
45;0.8906092643737793;node spawned
45;0.8906605243682861;node appear
45;0.8906779289245605;node spawned
45;0.8907370567321777;node spawned
45;0.8907849788665771;node appear
45;0.8908028602600098;node spawned
45;0.8908495903015137;node appear
45;0.8908681869506836;node spawned
45;0.8911149501800537;node appear
45;0.8911421298980713;node spawned
45;0.8912010192871094;node appear
45;0.8912196159362793;node spawned
45;0.8912744522094727;node spawned
45;0.8913238048553467;node appear
45;0.8913416862487793;node spawned
45;0.8913898468017578;node appear
45;0.8914072513580322;node spawned
45;0.8914608955383301;node spawned
45;0.8915116786956787;node appear
45;0.8915295600891113;node spawned
45;0.8915765285491943;node appear
45;0.8915939331054688;node spawned
45;0.8916409015655518;node appear
45;0.8916580677032471;node spawned
45;0.8917114734649658;node spawned
45;0.8917601108551025;node appear
45;0.891777753829956;node spawned
45;0.8918311595916748;node spawned
45;0.8918778896331787;node appear
45;0.8918952941894531;node spawned
45;0.8919410705566406;node appear
45;0.8919587135314941;node spawned
45;0.8920063972473145;node appear
45;0.8920242786407471;node spawned
45;0.8920779228210449;node spawned
45;0.8921253681182861;node appear
45;0.8921427726745605;node spawned
45;0.8921892642974854;node appear
45;0.8922066688537598;node spawned
45;0.8922600746154785;node spawned
45;0.8923220634460449;node appear
45;0.8923399448394775;node spawned
45;0.8923864364624023;node appear
45;0.892404317855835;node spawned
45;0.8924517631530762;node appear
45;0.8924691677093506;node spawned
45;0.8925149440765381;node appear
45;0.8925323486328125;node spawned
45;0.8925788402557373;node appear
45;0.8925962448120117;node spawned
45;0.8926434516906738;node appear
45;0.8926606178283691;node spawned
45;0.8929083347320557;node appear
45;0.8929355144500732;node spawned
45;0.8929927349090576;node appear
45;0.8930106163024902;node spawned
45;0.8930578231811523;node appear
45;0.8930771350860596;node spawned
45;0.8931238651275635;node appear
45;0.8931412696838379;node spawned
45;0.8931455612182617;network ready
45;0.893301248550415;network ready -> callback handled
45;0.8933625221252441;node appear
45;0.8933823108673096;node spawned
45;0.8941481113433838;network up
45;0.9984331130981445;network updated
45;1.1233336925506592;command executed
46;0.5052669048309326;connect
46;0.5062582492828369;spawn request received
46;0.5067923069000244;spawn request send to taktuk
46;0.856691837310791;node appear
46;0.8593399524688721;node appear
46;0.8616702556610107;node appear
46;0.8619387149810791;node appear
46;0.8642604351043701;node appear
46;0.8645236492156982;node appear
46;0.8686416149139404;node appear
46;0.8689031600952148;node appear
46;0.8717715740203857;node appear
46;0.886502742767334;node spawned
46;0.8867862224578857;node spawned
46;0.8872544765472412;node appear
46;0.8872814178466797;node spawned
46;0.8875370025634766;node spawned
46;0.8875932693481445;node appear
46;0.8876152038574219;node spawned
46;0.8876662254333496;node appear
46;0.8876857757568359;node spawned
46;0.8877344131469727;node appear
46;0.8877534866333008;node spawned
46;0.8878037929534912;node appear
46;0.8878226280212402;node spawned
46;0.8879272937774658;node spawned
46;0.8881626129150391;node appear
46;0.8881843090057373;node spawned
46;0.888237714767456;node appear
46;0.8882570266723633;node spawned
46;0.8883137702941895;node spawned
46;0.8883678913116455;node appear
46;0.8883872032165527;node spawned
46;0.8884353637695312;node appear
46;0.8884546756744385;node spawned
46;0.8885087966918945;node appear
46;0.8885278701782227;node spawned
46;0.8885843753814697;node spawned
46;0.8886337280273438;node appear
46;0.8886528015136719;node spawned
46;0.888704776763916;node appear
46;0.8887252807617188;node spawned
46;0.8887782096862793;node appear
46;0.8887968063354492;node spawned
46;0.8888533115386963;node spawned
46;0.8889036178588867;node appear
46;0.8889222145080566;node spawned
46;0.8889706134796143;node appear
46;0.8889896869659424;node spawned
46;0.8890376091003418;node appear
46;0.8890559673309326;node spawned
46;0.8891115188598633;node spawned
46;0.8891596794128418;node appear
46;0.8891782760620117;node spawned
46;0.8892273902893066;node appear
46;0.8892464637756348;node spawned
46;0.8895068168640137;node spawned
46;0.889573335647583;node appear
46;0.8895936012268066;node spawned
46;0.8896448612213135;node appear
46;0.8896632194519043;node spawned
46;0.8897132873535156;node appear
46;0.8897321224212646;node spawned
46;0.8897879123687744;node spawned
46;0.8898394107818604;node appear
46;0.8898589611053467;node spawned
46;0.889909029006958;node appear
46;0.8899276256561279;node spawned
46;0.8899786472320557;node appear
46;0.8899970054626465;node spawned
46;0.8900449275970459;node appear
46;0.8900635242462158;node spawned
46;0.8901119232177734;node appear
46;0.8901300430297852;node spawned
46;0.8901779651641846;node appear
46;0.8901965618133545;node spawned
46;0.8902440071105957;node appear
46;0.8902633190155029;node spawned
46;0.8903114795684814;node appear
46;0.8903303146362305;node spawned
46;0.8903772830963135;node appear
46;0.8903963565826416;node spawned
46;0.8904528617858887;node appear
46;0.8904731273651123;node spawned
46;0.8905231952667236;node appear
46;0.8905417919158936;node spawned
46;0.8905901908874512;node appear
46;0.8906090259552002;node spawned
46;0.8906564712524414;node appear
46;0.8906769752502441;node spawned
46;0.8907253742218018;node appear
46;0.8907439708709717;node spawned
46;0.8907914161682129;node appear
46;0.8908102512359619;node spawned
46;0.890815258026123;network ready
46;0.8909547328948975;network ready -> callback handled
46;0.891014814376831;node appear
46;0.8910355567932129;node spawned
46;0.8918006420135498;network up
46;0.9962582588195801;network updated
46;1.1221129894256592;command executed
47;0.5052492618560791;connect
47;0.5062434673309326;spawn request received
47;0.5067670345306396;spawn request send to taktuk
47;0.8539853096008301;node appear
47;0.8582162857055664;node appear
47;0.8590841293334961;node appear
47;0.859466552734375;node appear
47;0.8616664409637451;node appear
47;0.8631551265716553;node appear
47;0.8649711608886719;node appear
47;0.8652591705322266;node appear
47;0.8794205188751221;node spawned
47;0.8796975612640381;node spawned
47;0.8799777030944824;node spawned
47;0.8800415992736816;node appear
47;0.8800621032714844;node spawned
47;0.8801238536834717;node appear
47;0.8801429271697998;node spawned
47;0.8801991939544678;node spawned
47;0.8802495002746582;node appear
47;0.8802692890167236;node spawned
47;0.8803210258483887;node appear
47;0.8803393840789795;node spawned
47;0.8803882598876953;node appear
47;0.880406379699707;node spawned
47;0.8806705474853516;node spawned
47;0.8807351589202881;node appear
47;0.8807542324066162;node spawned
47;0.8808043003082275;node appear
47;0.8808228969573975;node spawned
47;0.8808720111846924;node appear
47;0.880889892578125;node spawned
47;0.8809442520141602;node spawned
47;0.8809938430786133;node appear
47;0.881011962890625;node spawned
47;0.8810608386993408;node appear
47;0.8810794353485107;node spawned
47;0.8811371326446533;node appear
47;0.8811571598052979;node spawned
47;0.8812160491943359;node spawned
47;0.881267786026001;node appear
47;0.8812856674194336;node spawned
47;0.8813357353210449;node appear
47;0.8813550472259521;node spawned
47;0.881403923034668;node appear
47;0.8814218044281006;node spawned
47;0.8814723491668701;node appear
47;0.8814902305603027;node spawned
47;0.8815391063690186;node appear
47;0.8815569877624512;node spawned
47;0.8816571235656738;node spawned
47;0.8817074298858643;node appear
47;0.8817253112792969;node spawned
47;0.8819770812988281;node appear
47;0.8820052146911621;node spawned
47;0.8820664882659912;node appear
47;0.8820853233337402;node spawned
47;0.8821346759796143;node appear
47;0.8821530342102051;node spawned
47;0.8822031021118164;node appear
47;0.8822212219238281;node spawned
47;0.8822739124298096;node appear
47;0.8822917938232422;node spawned
47;0.8823401927947998;node appear
47;0.8823583126068115;node spawned
47;0.8824105262756348;node appear
47;0.8824286460876465;node spawned
47;0.8824834823608398;node spawned
47;0.8825340270996094;node appear
47;0.882551908493042;node spawned
47;0.8826019763946533;node appear
47;0.882620096206665;node spawned
47;0.8826713562011719;node appear
47;0.8826892375946045;node spawned
47;0.8827376365661621;node appear
47;0.8827555179595947;node spawned
47;0.8828041553497314;node appear
47;0.8828222751617432;node spawned
47;0.8828701972961426;node appear
47;0.8828878402709961;node spawned
47;0.8829352855682373;node appear
47;0.8829531669616699;node spawned
47;0.8830044269561768;node appear
47;0.8830223083496094;node spawned
47;0.883070707321167;node appear
47;0.8830885887145996;node spawned
47;0.8831362724304199;node appear
47;0.8831541538238525;node spawned
47;0.8832025527954102;node appear
47;0.8832221031188965;node spawned
47;0.883270263671875;node appear
47;0.8832883834838867;node spawned
47;0.8833358287811279;node appear
47;0.8833537101745605;node spawned
47;0.8834011554718018;node appear
47;0.8834187984466553;node spawned
47;0.8834235668182373;network ready
47;0.8835861682891846;network ready -> callback handled
47;0.8836474418640137;node appear
47;0.8836684226989746;node spawned
47;0.884472131729126;network up
47;0.9889054298400879;network updated
47;2.072847366333008;command executed
48;0.505246639251709;connect
48;0.5062477588653564;spawn request received
48;0.5067868232727051;spawn request send to taktuk
48;0.8551115989685059;node appear
48;0.8578145503997803;node appear
48;0.858069658279419;node appear
48;0.859950065612793;node appear
48;0.8627049922943115;node appear
48;0.8634541034698486;node appear
48;0.865426778793335;node appear
48;0.8685808181762695;node appear
48;0.8709206581115723;node appear
48;0.8721437454223633;node appear
48;0.8821332454681396;node spawned
48;0.8824095726013184;node spawned
48;0.8824772834777832;node appear
48;0.8824989795684814;node spawned
48;0.8825511932373047;node appear
48;0.8825697898864746;node spawned
48;0.8826215267181396;node appear
48;0.8826398849487305;node spawned
48;0.8828916549682617;node appear
48;0.8829214572906494;node spawned
48;0.8829751014709473;node appear
48;0.882993221282959;node spawned
48;0.883049726486206;node spawned
48;0.8831007480621338;node appear
48;0.8831188678741455;node spawned
48;0.8831677436828613;node appear
48;0.883185625076294;node spawned
48;0.8832383155822754;node appear
48;0.8832566738128662;node spawned
48;0.883305549621582;node appear
48;0.8833236694335938;node spawned
48;0.88338303565979;node spawned
48;0.8834383487701416;node appear
48;0.8834576606750488;node spawned
48;0.8835062980651855;node appear
48;0.8835256099700928;node spawned
48;0.8835752010345459;node appear
48;0.8835933208465576;node spawned
48;0.8836414813995361;node appear
48;0.8836593627929688;node spawned
48;0.8837134838104248;node spawned
48;0.8839707374572754;node appear
48;0.8839988708496094;node spawned
48;0.8840615749359131;node appear
48;0.884080171585083;node spawned
48;0.8841366767883301;node spawned
48;0.8841884136199951;node appear
48;0.884207010269165;node spawned
48;0.8842558860778809;node appear
48;0.8842740058898926;node spawned
48;0.8843231201171875;node appear
48;0.8843414783477783;node spawned
48;0.8843965530395508;node spawned
48;0.8844456672668457;node appear
48;0.8844637870788574;node spawned
48;0.884519100189209;node spawned
48;0.884568452835083;node appear
48;0.8845865726470947;node spawned
48;0.8846416473388672;node spawned
48;0.8846902847290039;node appear
48;0.8847086429595947;node spawned
48;0.8847572803497314;node appear
48;0.8847754001617432;node spawned
48;0.8848304748535156;node spawned
48;0.8848819732666016;node appear
48;0.8848996162414551;node spawned
48;0.8849489688873291;node appear
48;0.8849668502807617;node spawned
48;0.8850147724151611;node appear
48;0.8850328922271729;node spawned
48;0.8850808143615723;node appear
48;0.8850986957550049;node spawned
48;0.8851504325866699;node appear
48;0.8851687908172607;node spawned
48;0.8852167129516602;node appear
48;0.8852343559265137;node spawned
48;0.8852927684783936;node appear
48;0.8853120803833008;node spawned
48;0.8853628635406494;node appear
48;0.8853816986083984;node spawned
48;0.8854296207427979;node appear
48;0.8854477405548096;node spawned
48;0.8854959011077881;node appear
48;0.8855142593383789;node spawned
48;0.8855636119842529;node appear
48;0.8855838775634766;node spawned
48;0.8856329917907715;node appear
48;0.8856511116027832;node spawned
48;0.8859751224517822;node spawned
48;0.8860266208648682;node appear
48;0.8860452175140381;node spawned
48;0.8860936164855957;node appear
48;0.8861119747161865;node spawned
48;0.8861603736877441;node appear
48;0.8861784934997559;node spawned
48;0.8861830234527588;network ready
48;0.8863437175750732;network ready -> callback handled
48;0.8864052295684814;node appear
48;0.8864283561706543;node spawned
48;0.8872332572937012;network up
48;0.9917130470275879;network updated
48;1.118274211883545;command executed
49;0.5052087306976318;connect
49;0.5062119960784912;spawn request received
49;0.5067598819732666;spawn request send to taktuk
49;0.8587126731872559;node appear
49;0.8588004112243652;node appear
49;0.8613498210906982;node appear
49;0.8625333309173584;node appear
49;0.8632404804229736;node appear
49;0.8636879920959473;node appear
49;0.8641688823699951;node appear
49;0.8671262264251709;node appear
49;0.867656946182251;node appear
49;0.8707525730133057;node appear
49;0.8801355361938477;node spawned
49;0.8804097175598145;node spawned
49;0.8804802894592285;node appear
49;0.8805027008056641;node spawned
49;0.8807663917541504;node spawned
49;0.8808338642120361;node appear
49;0.8808531761169434;node spawned
49;0.8809030055999756;node appear
49;0.8809213638305664;node spawned
49;0.8809754848480225;node spawned
49;0.881023645401001;node appear
49;0.8810420036315918;node spawned
49;0.8810925483703613;node appear
49;0.881110668182373;node spawned
49;0.881157398223877;node appear
49;0.8811755180358887;node spawned
49;0.8812282085418701;node spawned
49;0.8814890384674072;node spawned
49;0.8815510272979736;node appear
49;0.8815701007843018;node spawned
49;0.8816177845001221;node appear
49;0.8816359043121338;node spawned
49;0.8816854953765869;node appear
49;0.8817036151885986;node spawned
49;0.8817503452301025;node appear
49;0.8817684650421143;node spawned
49;0.8818163871765137;node appear
49;0.8818368911743164;node spawned
49;0.8819384574890137;node appear
49;0.8819580078125;node spawned
49;0.8820111751556396;node appear
49;0.8820300102233887;node spawned
49;0.882080078125;node appear
49;0.8820986747741699;node spawned
49;0.8821461200714111;node appear
49;0.8821637630462646;node spawned
49;0.8822636604309082;node spawned
49;0.8823111057281494;node appear
49;0.8823294639587402;node spawned
49;0.8823826313018799;node spawned
49;0.8824307918548584;node appear
49;0.882448673248291;node spawned
49;0.8826980590820312;node appear
49;0.8827264308929443;node spawned
49;0.8827908039093018;node spawned
49;0.8828408718109131;node appear
49;0.882859468460083;node spawned
49;0.8829073905944824;node appear
49;0.8829257488250732;node spawned
49;0.8829741477966309;node appear
49;0.8829922676086426;node spawned
49;0.883042573928833;node appear
49;0.8830611705780029;node spawned
49;0.8831117153167725;node appear
49;0.8831298351287842;node spawned
49;0.883176326751709;node appear
49;0.8831942081451416;node spawned
49;0.8832423686981201;node appear
49;0.8832602500915527;node spawned
49;0.883307933807373;node appear
49;0.8833260536193848;node spawned
49;0.8833718299865723;node appear
49;0.883389949798584;node spawned
49;0.8834376335144043;node appear
49;0.883455753326416;node spawned
49;0.8835020065307617;node appear
49;0.8835203647613525;node spawned
49;0.8835663795471191;node appear
49;0.8835842609405518;node spawned
49;0.8836302757263184;node appear
49;0.8836483955383301;node spawned
49;0.8839535713195801;node spawned
49;0.8840196132659912;node appear
49;0.8840384483337402;node spawned
49;0.8840868473052979;node appear
49;0.8841078281402588;node spawned
49;0.8841550350189209;node appear
49;0.8841733932495117;node spawned
49;0.8842203617095947;node appear
49;0.8842384815216064;node spawned
49;0.8842849731445312;node appear
49;0.8843033313751221;node spawned
49;0.8846077919006348;node spawned
49;0.8846704959869385;node appear
49;0.8846895694732666;node spawned
49;0.8847370147705078;node appear
49;0.8847553730010986;node spawned
49;0.8847603797912598;network ready
49;0.8849148750305176;network ready -> callback handled
49;0.8849806785583496;node appear
49;0.8850016593933105;node spawned
49;0.8857619762420654;network up
49;0.9901704788208008;network updated
49;1.1171092987060547;command executed
50;0.5052096843719482;connect
50;0.5061893463134766;spawn request received
50;0.5067472457885742;spawn request send to taktuk
50;0.8565866947174072;node appear
50;0.8594934940338135;node appear
50;0.8598031997680664;node appear
50;0.8598732948303223;node appear
50;0.8645994663238525;node appear
50;0.8655641078948975;node appear
50;0.868596076965332;node appear
50;0.8703572750091553;node appear
50;0.8716590404510498;node appear
50;0.8849198818206787;node appear
50;0.8906161785125732;node spawned
50;0.8908994197845459;node spawned
50;0.8909711837768555;node spawned
50;0.8910276889801025;node appear
50;0.8910491466522217;node spawned
50;0.8913135528564453;node appear
50;0.8913474082946777;node spawned
50;0.8914093971252441;node spawned
50;0.8914589881896973;node appear
50;0.8914780616760254;node spawned
50;0.8915278911590576;node appear
50;0.8915467262268066;node spawned
50;0.8915958404541016;node appear
50;0.8916149139404297;node spawned
50;0.891669511795044;node spawned
50;0.8917174339294434;node appear
50;0.8917360305786133;node spawned
50;0.8917906284332275;node spawned
50;0.8918395042419434;node appear
50;0.8918581008911133;node spawned
50;0.892113447189331;node appear
50;0.8921451568603516;node spawned
50;0.8922023773193359;node appear
50;0.8922216892242432;node spawned
50;0.8922760486602783;node appear
50;0.8922951221466064;node spawned
50;0.8923451900482178;node appear
50;0.8923647403717041;node spawned
50;0.8924140930175781;node appear
50;0.8924336433410645;node spawned
50;0.892484188079834;node appear
50;0.892503023147583;node spawned
50;0.8925549983978271;node appear
50;0.8925738334655762;node spawned
50;0.8926293849945068;node spawned
50;0.8926782608032227;node appear
50;0.8926973342895508;node spawned
50;0.8927469253540039;node appear
50;0.8927655220031738;node spawned
50;0.8928141593933105;node appear
50;0.8928327560424805;node spawned
50;0.8928823471069336;node appear
50;0.8929009437561035;node spawned
50;0.8929495811462402;node appear
50;0.8929681777954102;node spawned
50;0.8930234909057617;node spawned
50;0.8930723667144775;node appear
50;0.8930912017822266;node spawned
50;0.8931398391723633;node appear
50;0.893157958984375;node spawned
50;0.8932108879089355;node appear
50;0.8932297229766846;node spawned
50;0.8932855129241943;node spawned
50;0.8933331966400146;node appear
50;0.8933522701263428;node spawned
50;0.8933999538421631;node appear
50;0.8934183120727539;node spawned
50;0.8934667110443115;node appear
50;0.8934853076934814;node spawned
50;0.8935399055480957;node spawned
50;0.8937962055206299;node appear
50;0.8938252925872803;node spawned
50;0.8938846588134766;node appear
50;0.8939037322998047;node spawned
50;0.8939604759216309;node spawned
50;0.8940093517303467;node appear
50;0.8940277099609375;node spawned
50;0.8940773010253906;node appear
50;0.8940961360931396;node spawned
50;0.894146203994751;node appear
50;0.8941645622253418;node spawned
50;0.8942131996154785;node appear
50;0.8942313194274902;node spawned
50;0.8942787647247314;node appear
50;0.8942975997924805;node spawned
50;0.894345760345459;node appear
50;0.8943660259246826;node spawned
50;0.8944144248962402;node appear
50;0.894432783126831;node spawned
50;0.8944797515869141;node appear
50;0.894498348236084;node spawned
50;0.8945448398590088;node appear
50;0.8945629596710205;node spawned
50;0.894608736038208;node appear
50;0.8946268558502197;node spawned
50;0.8946731090545654;node appear
50;0.8946917057037354;node spawned
50;0.894742488861084;node appear
50;0.8947618007659912;node spawned
50;0.8947668075561523;network ready
50;0.8949313163757324;network ready -> callback handled
50;0.8949935436248779;node appear
50;0.8950142860412598;node spawned
50;0.8958663940429688;network up
50;1.0004043579101562;network updated
50;2.085186243057251;command executed
51;0.5052573680877686;connect
51;0.5062410831451416;spawn request received
51;0.5068047046661377;spawn request send to taktuk
51;0.8534152507781982;node appear
51;0.8555648326873779;node appear
51;0.8587398529052734;node appear
51;0.8606774806976318;node appear
51;0.8615520000457764;node appear
51;0.8637096881866455;node appear
51;0.8650825023651123;node appear
51;0.8653309345245361;node appear
51;0.868462324142456;node appear
51;0.8699064254760742;node appear
51;0.8910770416259766;node spawned
51;0.8913929462432861;node spawned
51;0.8916592597961426;node spawned
51;0.8917262554168701;node appear
51;0.8917474746704102;node spawned
51;0.8918015956878662;node appear
51;0.8918211460113525;node spawned
51;0.8918731212615967;node appear
51;0.8918917179107666;node spawned
51;0.8919498920440674;node appear
51;0.8919696807861328;node spawned
51;0.8920192718505859;node appear
51;0.8920385837554932;node spawned
51;0.8920865058898926;node appear
51;0.8921048641204834;node spawned
51;0.8921589851379395;node spawned
51;0.8922085762023926;node appear
51;0.8922269344329834;node spawned
51;0.8924813270568848;node appear
51;0.8925096988677979;node spawned
51;0.8925659656524658;node appear
51;0.8925848007202148;node spawned
51;0.8926346302032471;node appear
51;0.892653226852417;node spawned
51;0.8927037715911865;node appear
51;0.8927233219146729;node spawned
51;0.8927788734436035;node spawned
51;0.8928272724151611;node appear
51;0.892845869064331;node spawned
51;0.8928978443145752;node appear
51;0.8929166793823242;node spawned
51;0.8929648399353027;node appear
51;0.8929831981658936;node spawned
51;0.8930394649505615;node spawned
51;0.8930892944335938;node appear
51;0.8931081295013428;node spawned
51;0.8931584358215332;node appear
51;0.893176794052124;node spawned
51;0.8932244777679443;node appear
51;0.8932430744171143;node spawned
51;0.8932983875274658;node spawned
51;0.8933494091033936;node appear
51;0.8933680057525635;node spawned
51;0.893416166305542;node appear
51;0.8934342861175537;node spawned
51;0.8934841156005859;node appear
51;0.8935022354125977;node spawned
51;0.8935568332672119;node spawned
51;0.8936057090759277;node appear
51;0.8936240673065186;node spawned
51;0.8936712741851807;node appear
51;0.8936893939971924;node spawned
51;0.8937442302703857;node spawned
51;0.8937945365905762;node appear
51;0.8938126564025879;node spawned
51;0.89385986328125;node appear
51;0.8938784599304199;node spawned
51;0.8939321041107178;node spawned
51;0.894181489944458;node appear
51;0.8942112922668457;node spawned
51;0.8942713737487793;node spawned
51;0.8943209648132324;node appear
51;0.8943393230438232;node spawned
51;0.89438796043396;node appear
51;0.8944060802459717;node spawned
51;0.8944540023803711;node appear
51;0.8944721221923828;node spawned
51;0.8945202827453613;node appear
51;0.894538402557373;node spawned
51;0.8945870399475098;node appear
51;0.8946053981781006;node spawned
51;0.8946528434753418;node appear
51;0.8946712017059326;node spawned
51;0.8947196006774902;node appear
51;0.894737958908081;node spawned
51;0.8947865962982178;node appear
51;0.8948066234588623;node spawned
51;0.8948554992675781;node appear
51;0.894873857498169;node spawned
51;0.8949222564697266;node appear
51;0.8949403762817383;node spawned
51;0.8949875831604004;node appear
51;0.8950059413909912;node spawned
51;0.8950531482696533;node appear
51;0.895071268081665;node spawned
51;0.895122766494751;node appear
51;0.8951418399810791;node spawned
51;0.8951892852783203;node appear
51;0.8952076435089111;node spawned
51;0.8952541351318359;node appear
51;0.8952724933624268;node spawned
51;0.895277738571167;network ready
51;0.8954412937164307;network ready -> callback handled
51;0.8955004215240479;node appear
51;0.8955216407775879;node spawned
51;0.8963396549224854;network up
51;1.0008947849273682;network updated
51;1.1293880939483643;command executed
52;0.5050139427185059;connect
52;0.5060272216796875;spawn request received
52;0.5066103935241699;spawn request send to taktuk
52;0.8586318492889404;node appear
52;0.8614933490753174;node appear
52;0.8617165088653564;node appear
52;0.8633015155792236;node appear
52;0.8642363548278809;node appear
52;0.8652021884918213;node appear
52;0.869187593460083;node appear
52;0.869448184967041;node appear
52;0.8704702854156494;node appear
52;0.8712022304534912;node appear
52;0.8957421779632568;node spawned
52;0.8960216045379639;node spawned
52;0.8960824012756348;node appear
52;0.8961067199707031;node spawned
52;0.896165132522583;node spawned
52;0.8962156772613525;node appear
52;0.8962345123291016;node spawned
52;0.8964762687683105;node appear
52;0.8964989185333252;node spawned
52;0.8965601921081543;node spawned
52;0.8966202735900879;node appear
52;0.8966405391693115;node spawned
52;0.8966913223266602;node appear
52;0.8967103958129883;node spawned
52;0.8967669010162354;node appear
52;0.8967862129211426;node spawned
52;0.8968336582183838;node appear
52;0.8968524932861328;node spawned
52;0.8969109058380127;node spawned
52;0.8969597816467285;node appear
52;0.8969783782958984;node spawned
52;0.8970263004302979;node appear
52;0.8970458507537842;node spawned
52;0.8970925807952881;node appear
52;0.8971118927001953;node spawned
52;0.8971657752990723;node spawned
52;0.8972141742706299;node appear
52;0.8972342014312744;node spawned
52;0.8972814083099365;node appear
52;0.8973002433776855;node spawned
52;0.8975441455841064;node spawned
52;0.8975987434387207;node appear
52;0.8976185321807861;node spawned
52;0.8976681232452393;node appear
52;0.8976874351501465;node spawned
52;0.8977437019348145;node spawned
52;0.8977925777435303;node appear
52;0.8978111743927002;node spawned
52;0.8978595733642578;node appear
52;0.8978781700134277;node spawned
52;0.8979332447052002;node spawned
52;0.897982120513916;node appear
52;0.8980004787445068;node spawned
52;0.8980512619018555;node appear
52;0.8980700969696045;node spawned
52;0.8981263637542725;node spawned
52;0.8981747627258301;node appear
52;0.898193359375;node spawned
52;0.8982410430908203;node appear
52;0.8982596397399902;node spawned
52;0.8983078002929688;node appear
52;0.8983263969421387;node spawned
52;0.8983769416809082;node appear
52;0.8983957767486572;node spawned
52;0.8984432220458984;node appear
52;0.8984615802764893;node spawned
52;0.8985168933868408;node spawned
52;0.8985655307769775;node appear
52;0.8985838890075684;node spawned
52;0.8986320495605469;node appear
52;0.8986506462097168;node spawned
52;0.8986978530883789;node appear
52;0.8987164497375488;node spawned
52;0.8987658023834229;node appear
52;0.8987843990325928;node spawned
52;0.8988320827484131;node appear
52;0.8988504409790039;node spawned
52;0.8988971710205078;node appear
52;0.8989155292510986;node spawned
52;0.8989624977111816;node appear
52;0.8989808559417725;node spawned
52;0.8990271091461182;node appear
52;0.8990457057952881;node spawned
52;0.8990921974182129;node appear
52;0.8991103172302246;node spawned
52;0.8991594314575195;node appear
52;0.8991796970367432;node spawned
52;0.8992276191711426;node appear
52;0.8992464542388916;node spawned
52;0.8994836807250977;node appear
52;0.899505615234375;node spawned
52;0.89955735206604;node appear
52;0.8995766639709473;node spawned
52;0.8996298313140869;node appear
52;0.8996496200561523;node spawned
52;0.8996989727020264;node appear
52;0.8997175693511963;node spawned
52;0.8997650146484375;node appear
52;0.8997838497161865;node spawned
52;0.8998305797576904;node appear
52;0.8998491764068604;node spawned
52;0.8998963832855225;node appear
52;0.8999149799346924;node spawned
52;0.8999199867248535;network ready
52;0.9000580310821533;network ready -> callback handled
52;0.9001185894012451;node appear
52;0.9001398086547852;node spawned
52;0.9008259773254395;network up
52;1.0056185722351074;network updated
52;1.133957862854004;command executed
53;0.5049624443054199;connect
53;0.5059909820556641;spawn request received
53;0.506584644317627;spawn request send to taktuk
53;0.8558504581451416;node appear
53;0.8567678928375244;node appear
53;0.861210823059082;node appear
53;0.8633894920349121;node appear
53;0.8657975196838379;node appear
53;0.8684310913085938;node appear
53;0.8689265251159668;node appear
53;0.8746328353881836;node appear
53;0.8775756359100342;node appear
53;0.8823084831237793;node appear
53;0.8960082530975342;node spawned
53;0.8962650299072266;node spawned
53;0.8965075016021729;node appear
53;0.8965325355529785;node spawned
53;0.8965866565704346;node appear
53;0.8966057300567627;node spawned
53;0.8966555595397949;node appear
53;0.896674394607544;node spawned
53;0.8967230319976807;node appear
53;0.8967411518096924;node spawned
53;0.8967921733856201;node appear
53;0.8968105316162109;node spawned
53;0.8968667984008789;node spawned
53;0.896920919418335;node appear
53;0.8969395160675049;node spawned
53;0.8971781730651855;node appear
53;0.8972084522247314;node spawned
53;0.8972642421722412;node appear
53;0.8972835540771484;node spawned
53;0.8973357677459717;node appear
53;0.8973538875579834;node spawned
53;0.8974101543426514;node spawned
53;0.8974597454071045;node appear
53;0.8974778652191162;node spawned
53;0.8975276947021484;node appear
53;0.8975470066070557;node spawned
53;0.8975961208343506;node appear
53;0.8976144790649414;node spawned
53;0.8976664543151855;node appear
53;0.8976848125457764;node spawned
53;0.8977365493774414;node appear
53;0.897754430770874;node spawned
53;0.8978104591369629;node spawned
53;0.8978643417358398;node appear
53;0.897883415222168;node spawned
53;0.8979394435882568;node appear
53;0.8979578018188477;node spawned
53;0.8980064392089844;node appear
53;0.8980245590209961;node spawned
53;0.8980729579925537;node appear
53;0.8980908393859863;node spawned
53;0.8981449604034424;node spawned
53;0.8981959819793701;node appear
53;0.8982138633728027;node spawned
53;0.8982625007629395;node appear
53;0.8982806205749512;node spawned
53;0.8983299732208252;node appear
53;0.8983476161956787;node spawned
53;0.8983957767486572;node appear
53;0.898413896560669;node spawned
53;0.8986549377441406;node spawned
53;0.8987088203430176;node appear
53;0.8987274169921875;node spawned
53;0.8987770080566406;node appear
53;0.8987951278686523;node spawned
53;0.8988442420959473;node appear
53;0.8988621234893799;node spawned
53;0.8989176750183105;node spawned
53;0.8989677429199219;node appear
53;0.8989861011505127;node spawned
53;0.8990340232849121;node appear
53;0.8990519046783447;node spawned
53;0.8991005420684814;node appear
53;0.8991184234619141;node spawned
53;0.8991734981536865;node spawned
53;0.8992228507995605;node appear
53;0.8992412090301514;node spawned
53;0.8992891311645508;node appear
53;0.8993070125579834;node spawned
53;0.8993549346923828;node appear
53;0.8993728160858154;node spawned
53;0.8994274139404297;node spawned
53;0.8994762897491455;node appear
53;0.8994946479797363;node spawned
53;0.8995499610900879;node spawned
53;0.8995993137359619;node appear
53;0.8996198177337646;node spawned
53;0.8996689319610596;node appear
53;0.8996872901916504;node spawned
53;0.8997402191162109;node appear
53;0.8997597694396973;node spawned
53;0.8998091220855713;node appear
53;0.8998270034790039;node spawned
53;0.8998751640319824;node appear
53;0.899893045425415;node spawned
53;0.8999416828155518;node appear
53;0.8999598026275635;node spawned
53;0.9000091552734375;node appear
53;0.9000275135040283;node spawned
53;0.9000804424285889;node appear
53;0.9000990390777588;node spawned
53;0.9001471996307373;node appear
53;0.900165319442749;node spawned
53;0.9002127647399902;node appear
53;0.900230884552002;node spawned
53;0.9002354145050049;network ready
53;0.9003715515136719;network ready -> callback handled
53;0.9004316329956055;node appear
53;0.9004528522491455;node spawned
53;0.9011309146881104;network up
53;1.0058414936065674;network updated
53;2.093474864959717;command executed
54;0.5051665306091309;connect
54;0.5061659812927246;spawn request received
54;0.5067574977874756;spawn request send to taktuk
54;0.8563385009765625;node appear
54;0.8584163188934326;node appear
54;0.860649585723877;node appear
54;0.8607213497161865;node appear
54;0.8608307838439941;node appear
54;0.8651866912841797;node appear
54;0.8692629337310791;node appear
54;0.870081901550293;node appear
54;0.8703398704528809;node appear
54;0.8788297176361084;node appear
54;0.8816578388214111;node spawned
54;0.8819191455841064;node spawned
54;0.8819835186004639;node spawned
54;0.8820409774780273;node spawned
54;0.8822774887084961;node appear
54;0.882300853729248;node spawned
54;0.8823647499084473;node spawned
54;0.8824164867401123;node appear
54;0.8824353218078613;node spawned
54;0.8824872970581055;node appear
54;0.8825061321258545;node spawned
54;0.8825621604919434;node spawned
54;0.8826117515563965;node appear
54;0.8826301097869873;node spawned
54;0.8826789855957031;node appear
54;0.882697343826294;node spawned
54;0.8827512264251709;node spawned
54;0.8827996253967285;node appear
54;0.8828179836273193;node spawned
54;0.8828647136688232;node appear
54;0.882882833480835;node spawned
54;0.8831229209899902;node spawned
54;0.8831806182861328;node appear
54;0.88319993019104;node spawned
54;0.8832554817199707;node spawned
54;0.8833045959472656;node appear
54;0.8833229541778564;node spawned
54;0.8833703994750977;node appear
54;0.8833887577056885;node spawned
54;0.8834431171417236;node spawned
54;0.8834917545318604;node appear
54;0.8835117816925049;node spawned
54;0.883561372756958;node appear
54;0.8835804462432861;node spawned
54;0.8836302757263184;node appear
54;0.8836486339569092;node spawned
54;0.8837058544158936;node appear
54;0.8837261199951172;node spawned
54;0.8837761878967285;node appear
54;0.8837947845458984;node spawned
54;0.883842945098877;node appear
54;0.8838620185852051;node spawned
54;0.8839130401611328;node appear
54;0.8839313983917236;node spawned
54;0.8839824199676514;node appear
54;0.8840012550354004;node spawned
54;0.8840517997741699;node appear
54;0.8840701580047607;node spawned
54;0.8841187953948975;node appear
54;0.8841369152069092;node spawned
54;0.8841862678527832;node appear
54;0.8842043876647949;node spawned
54;0.8842508792877197;node appear
54;0.8842689990997314;node spawned
54;0.8843162059783936;node appear
54;0.8843345642089844;node spawned
54;0.8843815326690674;node appear
54;0.8843996524810791;node spawned
54;0.8844506740570068;node appear
54;0.8844692707061768;node spawned
54;0.8847026824951172;node appear
54;0.8847236633300781;node spawned
54;0.8847754001617432;node appear
54;0.8847942352294922;node spawned
54;0.8848426342010498;node appear
54;0.8848609924316406;node spawned
54;0.884911060333252;node appear
54;0.8849294185638428;node spawned
54;0.8849763870239258;node appear
54;0.8849947452545166;node spawned
54;0.8850421905517578;node appear
54;0.8850603103637695;node spawned
54;0.8851089477539062;node appear
54;0.8851275444030762;node spawned
54;0.885176420211792;node appear
54;0.8851969242095947;node spawned
54;0.8852458000183105;node appear
54;0.8852643966674805;node spawned
54;0.8853163719177246;node appear
54;0.8853356838226318;node spawned
54;0.8853838443756104;node appear
54;0.8854022026062012;node spawned
54;0.8854496479034424;node appear
54;0.8854677677154541;node spawned
54;0.8855164051055908;node appear
54;0.8855347633361816;node spawned
54;0.8855874538421631;node appear
54;0.8856058120727539;node spawned
54;0.8856532573699951;node appear
54;0.8856713771820068;node spawned
54;0.8899726867675781;node spawned
54;0.8902091979980469;node appear
54;0.890230655670166;node spawned
54;0.8904650211334229;node appear
54;0.8904857635498047;node spawned
54;0.8905372619628906;node appear
54;0.8905560970306396;node spawned
54;0.8905613422393799;network ready
54;0.8906989097595215;network ready -> callback handled
54;0.8907589912414551;node appear
54;0.890779972076416;node spawned
54;0.8915596008300781;network up
54;0.9963967800140381;network updated
54;2.0855729579925537;command executed
55;0.5049481391906738;connect
55;0.5059468746185303;spawn request received
55;0.5065641403198242;spawn request send to taktuk
55;0.8555638790130615;node appear
55;0.8578600883483887;node appear
55;0.8616113662719727;node appear
55;0.8641171455383301;node appear
55;0.8663527965545654;node appear
55;0.866945743560791;node appear
55;0.8706579208374023;node appear
55;0.8738760948181152;node appear
55;0.8753509521484375;node appear
55;0.8777742385864258;node appear
55;0.8909504413604736;node spawned
55;0.8912274837493896;node spawned
55;0.8914992809295654;node spawned
55;0.8915708065032959;node spawned
55;0.8916223049163818;node appear
55;0.8916420936584473;node spawned
55;0.8916909694671631;node appear
55;0.8917088508605957;node spawned
55;0.8919565677642822;node appear
55;0.8919847011566162;node spawned
55;0.8920502662658691;node spawned
55;0.892103910446167;node appear
55;0.8921234607696533;node spawned
55;0.8921833038330078;node spawned
55;0.892235517501831;node appear
55;0.892254114151001;node spawned
55;0.8923051357269287;node appear
55;0.8923230171203613;node spawned
55;0.8923771381378174;node spawned
55;0.8924248218536377;node appear
55;0.8924424648284912;node spawned
55;0.8924884796142578;node appear
55;0.8925068378448486;node spawned
55;0.8925602436065674;node spawned
55;0.8926076889038086;node appear
55;0.8926258087158203;node spawned
55;0.8926737308502197;node appear
55;0.8926916122436523;node spawned
55;0.8929402828216553;node appear
55;0.892970085144043;node spawned
55;0.8930330276489258;node appear
55;0.8930513858795166;node spawned
55;0.8930995464324951;node appear
55;0.8931174278259277;node spawned
55;0.8932192325592041;node spawned
55;0.893268346786499;node appear
55;0.8932862281799316;node spawned
55;0.8933336734771729;node appear
55;0.8933517932891846;node spawned
55;0.8934018611907959;node appear
55;0.8934195041656494;node spawned
55;0.8934664726257324;node appear
55;0.8934845924377441;node spawned
55;0.8935320377349854;node appear
55;0.8935496807098389;node spawned
55;0.8935990333557129;node appear
55;0.8936169147491455;node spawned
55;0.8936643600463867;node appear
55;0.8936817646026611;node spawned
55;0.893728494644165;node appear
55;0.8937461376190186;node spawned
55;0.8937931060791016;node appear
55;0.893810510635376;node spawned
55;0.8938581943511963;node appear
55;0.8938758373260498;node spawned
55;0.893923282623291;node appear
55;0.8939409255981445;node spawned
55;0.8939878940582275;node appear
55;0.8940136432647705;node spawned
55;0.8940737247467041;node spawned
55;0.894122838973999;node appear
55;0.8941407203674316;node spawned
55;0.8941891193389893;node appear
55;0.8942070007324219;node spawned
55;0.8942530155181885;node appear
55;0.894270658493042;node spawned
55;0.8943171501159668;node appear
55;0.8943343162536621;node spawned
55;0.8943812847137451;node appear
55;0.8943986892700195;node spawned
55;0.8944516181945801;node spawned
55;0.894500732421875;node appear
55;0.8945188522338867;node spawned
55;0.8947672843933105;node appear
55;0.89479660987854;node spawned
55;0.8948478698730469;node appear
55;0.8948724269866943;node spawned
55;0.8949265480041504;node appear
55;0.8949453830718994;node spawned
55;0.8949964046478271;node appear
55;0.8950145244598389;node spawned
55;0.8950660228729248;node appear
55;0.8950841426849365;node spawned
55;0.8951327800750732;node appear
55;0.895150899887085;node spawned
55;0.8951976299285889;node appear
55;0.8952155113220215;node spawned
55;0.8952624797821045;node appear
55;0.895280122756958;node spawned
55;0.8953261375427246;node appear
55;0.895343542098999;node spawned
55;0.8953895568847656;node appear
55;0.89540696144104;node spawned
55;0.8954529762268066;node appear
55;0.895470380783081;node spawned
55;0.8955166339874268;node appear
55;0.8955340385437012;node spawned
55;0.8955798149108887;node appear
55;0.8955972194671631;node spawned
55;0.895601749420166;network ready
55;0.895758867263794;network ready -> callback handled
55;0.8958191871643066;node appear
55;0.8958396911621094;node spawned
55;0.8966796398162842;network up
55;1.0015029907226562;network updated
55;1.1328773498535156;command executed
56;0.5052464008331299;connect
56;0.5063393115997314;spawn request received
56;0.5069742202758789;spawn request send to taktuk
56;0.8549168109893799;node appear
56;0.8573048114776611;node appear
56;0.8603832721710205;node appear
56;0.8624134063720703;node appear
56;0.8653614521026611;node appear
56;0.8660092353820801;node appear
56;0.8668036460876465;node appear
56;0.8685729503631592;node appear
56;0.8724336624145508;node appear
56;0.879584789276123;node appear
56;0.9172778129577637;node spawned
56;0.9173743724822998;node spawned
56;0.9174292087554932;node appear
56;0.9174535274505615;node spawned
56;0.9175105094909668;node spawned
56;0.9175658226013184;node spawned
56;0.9176194667816162;node spawned
56;0.9176685810089111;node appear
56;0.917686939239502;node spawned
56;0.9179561138153076;node spawned
56;0.9180240631103516;node appear
56;0.9180428981781006;node spawned
56;0.9180936813354492;node appear
56;0.91811203956604;node spawned
56;0.9181666374206543;node spawned
56;0.9182157516479492;node appear
56;0.9182336330413818;node spawned
56;0.9182834625244141;node appear
56;0.9183013439178467;node spawned
56;0.9183559417724609;node spawned
56;0.9184072017669678;node appear
56;0.9184253215789795;node spawned
56;0.9184727668762207;node appear
56;0.9184908866882324;node spawned
56;0.9185500144958496;node spawned
56;0.9185988903045654;node appear
56;0.9186170101165771;node spawned
56;0.9186677932739258;node appear
56;0.9186859130859375;node spawned
56;0.9187326431274414;node appear
56;0.9187514781951904;node spawned
56;0.9187986850738525;node appear
56;0.918816089630127;node spawned
56;0.9188621044158936;node appear
56;0.9188799858093262;node spawned
56;0.9189276695251465;node appear
56;0.9189453125;node spawned
56;0.9189934730529785;node appear
56;0.919011116027832;node spawned
56;0.9190578460693359;node appear
56;0.9190757274627686;node spawned
56;0.9193260669708252;node appear
56;0.9193558692932129;node spawned
56;0.9194087982177734;node appear
56;0.9194281101226807;node spawned
56;0.9194808006286621;node appear
56;0.9194989204406738;node spawned
56;0.9195475578308105;node appear
56;0.9195656776428223;node spawned
56;0.9196131229400635;node appear
56;0.919630765914917;node spawned
56;0.9196782112121582;node appear
56;0.9196956157684326;node spawned
56;0.9197449684143066;node appear
56;0.919762372970581;node spawned
56;0.9198100566864014;node appear
56;0.919827938079834;node spawned
56;0.9198758602142334;node appear
56;0.919893741607666;node spawned
56;0.9199409484863281;node appear
56;0.9199588298797607;node spawned
56;0.9200093746185303;node appear
56;0.9200272560119629;node spawned
56;0.9200758934020996;node appear
56;0.9200937747955322;node spawned
56;0.9201428890228271;node appear
56;0.920161247253418;node spawned
56;0.9202167987823486;node appear
56;0.9202349185943604;node spawned
56;0.9202823638916016;node appear
56;0.9203002452850342;node spawned
56;0.9203472137451172;node appear
56;0.9203650951385498;node spawned
56;0.9204182624816895;node appear
56;0.9204390048980713;node spawned
56;0.9204897880554199;node appear
56;0.9205079078674316;node spawned
56;0.9205551147460938;node appear
56;0.9205732345581055;node spawned
56;0.9206206798553467;node appear
56;0.9206383228302002;node spawned
56;0.9206924438476562;node spawned
56;0.920741081237793;node appear
56;0.9207587242126465;node spawned
56;0.9208066463470459;node appear
56;0.9208245277404785;node spawned
56;0.9208931922912598;node spawned
56;0.9209461212158203;node appear
56;0.9209644794464111;node spawned
56;0.921013355255127;node appear
56;0.9210314750671387;node spawned
56;0.921079158782959;node appear
56;0.9210970401763916;node spawned
56;0.921144962310791;node appear
56;0.9211628437042236;node spawned
56;0.9212088584899902;node appear
56;0.9212267398834229;node spawned
56;0.9212744235992432;node appear
56;0.9212923049926758;node spawned
56;0.9213390350341797;node appear
56;0.9213564395904541;node spawned
56;0.9213614463806152;network ready
56;0.9215230941772461;network ready -> callback handled
56;0.9215869903564453;node appear
56;0.9216086864471436;node spawned
56;0.9224717617034912;network up
56;1.0272870063781738;network updated
56;2.117555856704712;command executed
57;0.5052242279052734;connect
57;0.5062134265899658;spawn request received
57;0.5068631172180176;spawn request send to taktuk
57;0.8564331531524658;node appear
57;0.8619332313537598;node appear
57;0.8629515171051025;node appear
57;0.8630213737487793;node appear
57;0.8635036945343018;node appear
57;0.8635742664337158;node appear
57;0.8706247806549072;node appear
57;0.8709893226623535;node appear
57;0.8775620460510254;node appear
57;0.8816726207733154;node appear
57;0.9014232158660889;node spawned
57;0.9017271995544434;node spawned
57;0.9019865989685059;node spawned
57;0.9020521640777588;node spawned
57;0.9021058082580566;node appear
57;0.9021286964416504;node spawned
57;0.9021785259246826;node appear
57;0.9021971225738525;node spawned
57;0.9022459983825684;node appear
57;0.9022641181945801;node spawned
57;0.9023137092590332;node appear
57;0.9023318290710449;node spawned
57;0.9025933742523193;node appear
57;0.9026174545288086;node spawned
57;0.9026763439178467;node appear
57;0.902695894241333;node spawned
57;0.9027471542358398;node appear
57;0.9027655124664307;node spawned
57;0.9028229713439941;node spawned
57;0.9028761386871338;node appear
57;0.9028942584991455;node spawned
57;0.9029481410980225;node appear
57;0.9029664993286133;node spawned
57;0.903019905090332;node appear
57;0.9030380249023438;node spawned
57;0.9030969142913818;node appear
57;0.9031167030334473;node spawned
57;0.9031779766082764;node spawned
57;0.903228759765625;node appear
57;0.9032473564147949;node spawned
57;0.903296947479248;node appear
57;0.9033145904541016;node spawned
57;0.9033656120300293;node appear
57;0.9033834934234619;node spawned
57;0.9034361839294434;node appear
57;0.9034538269042969;node spawned
57;0.9035017490386963;node appear
57;0.9035193920135498;node spawned
57;0.9035675525665283;node appear
57;0.9035851955413818;node spawned
57;0.9036328792572021;node appear
57;0.9036505222320557;node spawned
57;0.9038879871368408;node appear
57;0.9039087295532227;node spawned
57;0.9039640426635742;node appear
57;0.9039826393127441;node spawned
57;0.9040334224700928;node appear
57;0.9040515422821045;node spawned
57;0.9041075706481934;node spawned
57;0.9041578769683838;node appear
57;0.9041759967803955;node spawned
57;0.9042258262634277;node appear
57;0.9042437076568604;node spawned
57;0.9042956829071045;node appear
57;0.9043135643005371;node spawned
57;0.9043688774108887;node spawned
57;0.9044189453125;node appear
57;0.9044373035430908;node spawned
57;0.9044852256774902;node appear
57;0.904503583908081;node spawned
57;0.904552698135376;node appear
57;0.9045701026916504;node spawned
57;0.9046192169189453;node appear
57;0.9046370983123779;node spawned
57;0.9046926498413086;node spawned
57;0.904742956161499;node appear
57;0.9047605991363525;node spawned
57;0.9048104286193848;node appear
57;0.9048287868499756;node spawned
57;0.9048769474029541;node appear
57;0.9048953056335449;node spawned
57;0.9049510955810547;node spawned
57;0.9050042629241943;node appear
57;0.9050228595733643;node spawned
57;0.9050743579864502;node appear
57;0.9050941467285156;node spawned
57;0.9051451683044434;node appear
57;0.9051632881164551;node spawned
57;0.9052176475524902;node appear
57;0.905236005783081;node spawned
57;0.9052853584289551;node appear
57;0.9053032398223877;node spawned
57;0.9053595066070557;node spawned
57;0.9054086208343506;node appear
57;0.905426025390625;node spawned
57;0.905475378036499;node appear
57;0.9054930210113525;node spawned
57;0.9055404663085938;node appear
57;0.9055583477020264;node spawned
57;0.9056069850921631;node appear
57;0.9056246280670166;node spawned
57;0.9056727886199951;node appear
57;0.9056897163391113;node spawned
57;0.9057378768920898;node appear
57;0.9057559967041016;node spawned
57;0.9058034420013428;node appear
57;0.9058208465576172;node spawned
57;0.9058687686920166;node appear
57;0.9058864116668701;node spawned
57;0.9059329032897949;node appear
57;0.9059507846832275;node spawned
57;0.9061846733093262;node appear
57;0.9062058925628662;node spawned
57;0.9062111377716064;network ready
57;0.906355619430542;network ready -> callback handled
57;0.9064171314239502;node appear
57;0.9064385890960693;node spawned
57;0.9072039127349854;network up
57;1.0121710300445557;network updated
57;2.10152530670166;command executed
58;0.5052611827850342;connect
58;0.5062696933746338;spawn request received
58;0.506906270980835;spawn request send to taktuk
58;0.8569598197937012;node appear
58;0.8594856262207031;node appear
58;0.8618183135986328;node appear
58;0.8629617691040039;node appear
58;0.8630387783050537;node appear
58;0.8650846481323242;node appear
58;0.8683815002441406;node appear
58;0.8703432083129883;node appear
58;0.8713412284851074;node appear
58;0.8714158535003662;node appear
58;0.9027979373931885;node spawned
58;0.9030723571777344;node spawned
58;0.9031388759613037;node spawned
58;0.9031982421875;node spawned
58;0.9032490253448486;node appear
58;0.9032714366912842;node spawned
58;0.903322696685791;node appear
58;0.9033408164978027;node spawned
58;0.9035849571228027;node spawned
58;0.9036402702331543;node appear
58;0.9036591053009033;node spawned
58;0.9037127494812012;node appear
58;0.9037318229675293;node spawned
58;0.9037826061248779;node appear
58;0.9038002490997314;node spawned
58;0.9038600921630859;node spawned
58;0.9039103984832764;node appear
58;0.9039287567138672;node spawned
58;0.9039831161499023;node appear
58;0.9040012359619141;node spawned
58;0.9040493965148926;node appear
58;0.9040670394897461;node spawned
58;0.9041156768798828;node appear
58;0.9041333198547363;node spawned
58;0.904181957244873;node appear
58;0.9041996002197266;node spawned
58;0.9042472839355469;node appear
58;0.904266357421875;node spawned
58;0.9043145179748535;node appear
58;0.9043319225311279;node spawned
58;0.904381275177002;node appear
58;0.9043991565704346;node spawned
58;0.9046437740325928;node spawned
58;0.9046995639801025;node appear
58;0.9047181606292725;node spawned
58;0.9047684669494629;node appear
58;0.9047865867614746;node spawned
58;0.9048361778259277;node appear
58;0.9048540592193604;node spawned
58;0.904902458190918;node appear
58;0.9049201011657715;node spawned
58;0.9049758911132812;node spawned
58;0.9050271511077881;node appear
58;0.9050452709197998;node spawned
58;0.9050979614257812;node appear
58;0.9051165580749512;node spawned
58;0.9051647186279297;node appear
58;0.9051830768585205;node spawned
58;0.9052386283874512;node spawned
58;0.9052891731262207;node appear
58;0.9053070545196533;node spawned
58;0.90535569190979;node appear
58;0.9053735733032227;node spawned
58;0.9054243564605713;node appear
58;0.9054419994354248;node spawned
58;0.9054975509643555;node spawned
58;0.9055469036102295;node appear
58;0.905564546585083;node spawned
58;0.9056127071380615;node appear
58;0.9056305885314941;node spawned
58;0.9056792259216309;node appear
58;0.9056968688964844;node spawned
58;0.905745267868042;node appear
58;0.9057626724243164;node spawned
58;0.9058103561401367;node appear
58;0.9058277606964111;node spawned
58;0.9058759212493896;node appear
58;0.9058938026428223;node spawned
58;0.905947208404541;node appear
58;0.9059655666351318;node spawned
58;0.9060156345367432;node appear
58;0.9060337543487549;node spawned
58;0.9060878753662109;node appear
58;0.9061059951782227;node spawned
58;0.906153678894043;node appear
58;0.9061732292175293;node spawned
58;0.9062707424163818;node appear
58;0.9062893390655518;node spawned
58;0.9065253734588623;node appear
58;0.9065454006195068;node spawned
58;0.9065983295440674;node appear
58;0.9066157341003418;node spawned
58;0.9066646099090576;node appear
58;0.9066824913024902;node spawned
58;0.9067320823669434;node appear
58;0.9067494869232178;node spawned
58;0.9067988395690918;node appear
58;0.9068160057067871;node spawned
58;0.9086401462554932;node spawned
58;0.9088964462280273;node appear
58;0.908919095993042;node spawned
58;0.9091603755950928;node appear
58;0.9091806411743164;node spawned
58;0.9092342853546143;node appear
58;0.9092521667480469;node spawned
58;0.9093022346496582;node appear
58;0.9093198776245117;node spawned
58;0.9093692302703857;node appear
58;0.9093868732452393;node spawned
58;0.9096195697784424;node appear
58;0.909639835357666;node spawned
58;0.9096922874450684;node appear
58;0.909710168838501;node spawned
58;0.9097585678100586;node appear
58;0.909775972366333;node spawned
58;0.909780740737915;network ready
58;0.909919023513794;network ready -> callback handled
58;0.9099793434143066;node appear
58;0.9100000858306885;node spawned
58;0.9107449054718018;network up
58;1.0156362056732178;network updated
58;2.1062216758728027;command executed
59;0.5049576759338379;connect
59;0.5059666633605957;spawn request received
59;0.506615161895752;spawn request send to taktuk
59;0.8558549880981445;node appear
59;0.8593952655792236;node appear
59;0.860863208770752;node appear
59;0.8627698421478271;node appear
59;0.8648405075073242;node appear
59;0.8655495643615723;node appear
59;0.8679666519165039;node appear
59;0.8706698417663574;node appear
59;0.8786675930023193;node appear
59;0.880359411239624;node appear
59;0.8961782455444336;node spawned
59;0.8965117931365967;node spawned
59;0.8967676162719727;node appear
59;0.8968014717102051;node spawned
59;0.8968651294708252;node appear
59;0.8968844413757324;node spawned
59;0.8969330787658691;node appear
59;0.8969516754150391;node spawned
59;0.8969988822937012;node appear
59;0.8970170021057129;node spawned
59;0.8970630168914795;node appear
59;0.8970808982849121;node spawned
59;0.8973393440246582;node spawned
59;0.8974039554595947;node appear
59;0.8974230289459229;node spawned
59;0.8974723815917969;node appear
59;0.8974907398223877;node spawned
59;0.8975369930267334;node appear
59;0.8975551128387451;node spawned
59;0.8976023197174072;node appear
59;0.8976202011108398;node spawned
59;0.8976664543151855;node appear
59;0.8976848125457764;node spawned
59;0.8977310657501221;node appear
59;0.8977501392364502;node spawned
59;0.8977980613708496;node appear
59;0.8978159427642822;node spawned
59;0.8978667259216309;node appear
59;0.8978850841522217;node spawned
59;0.8979365825653076;node appear
59;0.8979556560516357;node spawned
59;0.8980062007904053;node appear
59;0.8980247974395752;node spawned
59;0.8980796337127686;node spawned
59;0.8981270790100098;node appear
59;0.8981449604034424;node spawned
59;0.8981904983520508;node appear
59;0.8982086181640625;node spawned
59;0.8982574939727783;node appear
59;0.89827561378479;node spawned
59;0.8983221054077148;node appear
59;0.8983399868011475;node spawned
59;0.8983869552612305;node appear
59;0.8984048366546631;node spawned
59;0.8986637592315674;node spawned
59;0.8987278938293457;node appear
59;0.8987472057342529;node spawned
59;0.8987951278686523;node appear
59;0.8988134860992432;node spawned
59;0.8988618850708008;node appear
59;0.8988797664642334;node spawned
59;0.8989260196685791;node appear
59;0.8989439010620117;node spawned
59;0.8989934921264648;node appear
59;0.8990116119384766;node spawned
59;0.8990602493286133;node appear
59;0.8990781307220459;node spawned
59;0.8991320133209229;node spawned
59;0.8991801738739014;node appear
59;0.8991987705230713;node spawned
59;0.8992562294006348;node appear
59;0.8992762565612793;node spawned
59;0.899329423904419;node appear
59;0.8993480205535889;node spawned
59;0.8994035720825195;node spawned
59;0.899451732635498;node appear
59;0.8994698524475098;node spawned
59;0.8995184898376465;node appear
59;0.8995366096496582;node spawned
59;0.8995952606201172;node spawned
59;0.8996446132659912;node appear
59;0.8996634483337402;node spawned
59;0.8997104167938232;node appear
59;0.8997375965118408;node spawned
59;0.899794340133667;node spawned
59;0.8998415470123291;node appear
59;0.8998596668243408;node spawned
59;0.8999061584472656;node appear
59;0.8999240398406982;node spawned
59;0.8999714851379395;node appear
59;0.8999898433685303;node spawned
59;0.9000434875488281;node spawned
59;0.9000904560089111;node appear
59;0.9001085758209229;node spawned
59;0.9001626968383789;node spawned
59;0.900209903717041;node appear
59;0.9002280235290527;node spawned
59;0.9002728462219238;node appear
59;0.9002904891967773;node spawned
59;0.9003374576568604;node appear
59;0.9003555774688721;node spawned
59;0.9004027843475342;node appear
59;0.9004206657409668;node spawned
59;0.9004662036895752;node appear
59;0.9004840850830078;node spawned
59;0.9005303382873535;node appear
59;0.9005477428436279;node spawned
59;0.9005928039550781;node appear
59;0.900611162185669;node spawned
59;0.9006571769714355;node appear
59;0.9006755352020264;node spawned
59;0.9007260799407959;node appear
59;0.9007444381713867;node spawned
59;0.9009928703308105;node appear
59;0.9010217189788818;node spawned
59;0.9010779857635498;node appear
59;0.9010968208312988;node spawned
59;0.9011013507843018;network ready
59;0.9012579917907715;network ready -> callback handled
59;0.9013171195983887;node appear
59;0.9013373851776123;node spawned
59;0.9021644592285156;network up
59;1.007187843322754;network updated
59;2.098085880279541;command executed
60;0.5049943923950195;connect
60;0.5060267448425293;spawn request received
60;0.506690263748169;spawn request send to taktuk
60;0.8568506240844727;node appear
60;0.8574502468109131;node appear
60;0.8622214794158936;node appear
60;0.8625268936157227;node appear
60;0.863638162612915;node appear
60;0.8655414581298828;node appear
60;0.8660340309143066;node appear
60;0.8674468994140625;node appear
60;0.874748706817627;node appear
60;0.8809006214141846;node appear
60;0.8928205966949463;node spawned
60;0.8931031227111816;node spawned
60;0.8931705951690674;node spawned
60;0.8932228088378906;node appear
60;0.8932435512542725;node spawned
60;0.8932945728302002;node appear
60;0.893312931060791;node spawned
60;0.8935725688934326;node spawned
60;0.8936443328857422;node spawned
60;0.8936960697174072;node appear
60;0.8937151432037354;node spawned
60;0.8937697410583496;node appear
60;0.8937892913818359;node spawned
60;0.8938381671905518;node appear
60;0.8938565254211426;node spawned
60;0.8939082622528076;node appear
60;0.8939268589019775;node spawned
60;0.8939785957336426;node appear
60;0.8939964771270752;node spawned
60;0.8940446376800537;node appear
60;0.8940622806549072;node spawned
60;0.8941171169281006;node spawned
60;0.8941655158996582;node appear
60;0.8941836357116699;node spawned
60;0.8942317962646484;node appear
60;0.8942499160766602;node spawned
60;0.8942985534667969;node appear
60;0.8943173885345459;node spawned
60;0.8945770263671875;node spawned
60;0.8946418762207031;node appear
60;0.8946609497070312;node spawned
60;0.8947174549102783;node spawned
60;0.8947670459747314;node appear
60;0.8947861194610596;node spawned
60;0.8948366641998291;node appear
60;0.8948550224304199;node spawned
60;0.8949024677276611;node appear
60;0.8949213027954102;node spawned
60;0.8949768543243408;node spawned
60;0.8950257301330566;node appear
60;0.8950436115264893;node spawned
60;0.8950920104980469;node appear
60;0.8951101303100586;node spawned
60;0.8951647281646729;node spawned
60;0.8952138423919678;node appear
60;0.8952317237854004;node spawned
60;0.8952832221984863;node appear
60;0.895301342010498;node spawned
60;0.8953495025634766;node appear
60;0.8953671455383301;node spawned
60;0.895416259765625;node appear
60;0.8954339027404785;node spawned
60;0.8954815864562988;node appear
60;0.8954992294311523;node spawned
60;0.8955461978912354;node appear
60;0.895564079284668;node spawned
60;0.8956151008605957;node appear
60;0.8956332206726074;node spawned
60;0.895681619644165;node appear
60;0.8956997394561768;node spawned
60;0.8957514762878418;node appear
60;0.8957688808441162;node spawned
60;0.895820140838623;node appear
60;0.8958382606506348;node spawned
60;0.8958950042724609;node appear
60;0.8959136009216309;node spawned
60;0.8959643840789795;node appear
60;0.8959825038909912;node spawned
60;0.8960299491882324;node appear
60;0.896047830581665;node spawned
60;0.896094560623169;node appear
60;0.8961122035980225;node spawned
60;0.8963611125946045;node appear
60;0.8963887691497803;node spawned
60;0.8964476585388184;node appear
60;0.896467924118042;node spawned
60;0.8965165615081787;node appear
60;0.8965344429016113;node spawned
60;0.8965823650360107;node appear
60;0.8966000080108643;node spawned
60;0.8966505527496338;node appear
60;0.8966684341430664;node spawned
60;0.8967165946960449;node appear
60;0.8967344760894775;node spawned
60;0.8967816829681396;node appear
60;0.8967995643615723;node spawned
60;0.8968465328216553;node appear
60;0.8968641757965088;node spawned
60;0.8969111442565918;node appear
60;0.8969290256500244;node spawned
60;0.8969762325286865;node appear
60;0.8969943523406982;node spawned
60;0.8970425128936768;node appear
60;0.8970608711242676;node spawned
60;0.9071531295776367;node spawned
60;0.907407283782959;node appear
60;0.90743088722229;node spawned
60;0.9074890613555908;node appear
60;0.907508134841919;node spawned
60;0.9077451229095459;node appear
60;0.9077656269073486;node spawned
60;0.9078173637390137;node appear
60;0.9078357219696045;node spawned
60;0.9078836441040039;node appear
60;0.9079015254974365;node spawned
60;0.9079487323760986;node appear
60;0.9079666137695312;node spawned
60;0.9080138206481934;node appear
60;0.908031702041626;node spawned
60;0.9080362319946289;network ready
60;0.9081976413726807;network ready -> callback handled
60;0.9084429740905762;node appear
60;0.9084646701812744;node spawned
60;0.9090650081634521;network up
60;1.0142779350280762;network updated
60;1.1484706401824951;command executed
