x;y;type
100;0.5311191082000732;taktuk connected
100;0.5324018001556396;spawn request received
100;0.5336496829986572;spawn request send to taktuk
100;0.8866326808929443;node appear
100;0.8887887001037598;node appear
100;0.8917922973632812;node appear
100;0.8924963474273682;node appear
100;0.8971438407897949;node appear
100;0.8996210098266602;node appear
100;0.9089806079864502;node appear
100;0.913515567779541;node appear
100;0.9215683937072754;node appear
100;0.9218728542327881;node appear
100;0.9378082752227783;node appear
100;0.9378349781036377;node spawned
100;0.9378862380981445;node appear
100;0.9379012584686279;node spawned
100;0.9379501342773438;node appear
100;0.9379634857177734;node spawned
100;0.9380092620849609;node appear
100;0.9380223751068115;node spawned
100;0.9380674362182617;node appear
100;0.9380805492401123;node spawned
100;0.9383113384246826;node appear
100;0.9383268356323242;node spawned
100;0.9383800029754639;node appear
100;0.9383935928344727;node spawned
100;0.9385149478912354;node appear
100;0.9385290145874023;node spawned
100;0.9385757446289062;node appear
100;0.9385890960693359;node spawned
100;0.9386348724365234;node appear
100;0.938647985458374;node spawned
100;0.9458267688751221;node spawned
100;0.9462182521820068;node appear
100;0.9462356567382812;node spawned
100;0.9464695453643799;node appear
100;0.9464850425720215;node spawned
100;0.9465386867523193;node appear
100;0.9465527534484863;node spawned
100;0.9466052055358887;node appear
100;0.9466195106506348;node spawned
100;0.9466660022735596;node appear
100;0.9466793537139893;node spawned
100;0.9467246532440186;node appear
100;0.9467382431030273;node spawned
100;0.946967363357544;node appear
100;0.9469821453094482;node spawned
100;0.9470322132110596;node appear
100;0.9470458030700684;node spawned
100;0.9470922946929932;node appear
100;0.9471056461334229;node spawned
100;0.9471526145935059;node appear
100;0.9471659660339355;node spawned
100;0.9492120742797852;node spawned
100;0.9494478702545166;node appear
100;0.9494643211364746;node spawned
100;0.9495143890380859;node appear
100;0.949528694152832;node spawned
100;0.9495751857757568;node appear
100;0.9495925903320312;node spawned
100;0.949822187423706;node appear
100;0.9498374462127686;node spawned
100;0.949927806854248;node spawned
100;0.9501659870147705;node appear
100;0.9501821994781494;node spawned
100;0.9502363204956055;node appear
100;0.9502501487731934;node spawned
100;0.9504845142364502;node appear
100;0.9504995346069336;node spawned
100;0.9505493640899658;node appear
100;0.9505629539489746;node spawned
100;0.9506099224090576;node appear
100;0.9506232738494873;node spawned
100;0.9506702423095703;node appear
100;0.95068359375;node spawned
100;0.9507308006286621;node appear
100;0.9507441520690918;node spawned
100;0.9507908821105957;node appear
100;0.9508042335510254;node spawned
100;0.9508509635925293;node appear
100;0.9508664608001709;node spawned
100;0.9509124755859375;node appear
100;0.9509258270263672;node spawned
100;0.9509711265563965;node appear
100;0.9509842395782471;node spawned
100;0.9512119293212891;node appear
100;0.9512269496917725;node spawned
100;0.9512763023376465;node appear
100;0.9512894153594971;node spawned
100;0.9513344764709473;node appear
100;0.951347827911377;node spawned
100;0.9513945579528809;node appear
100;0.9514076709747314;node spawned
100;0.9514572620391846;node appear
100;0.9514703750610352;node spawned
100;0.9542555809020996;node spawned
100;0.954718828201294;node appear
100;0.9547350406646729;node spawned
100;0.9549670219421387;node appear
100;0.9549820423126221;node spawned
100;0.9550313949584961;node appear
100;0.9550449848175049;node spawned
100;0.9552726745605469;node appear
100;0.9552876949310303;node spawned
100;0.9553382396697998;node appear
100;0.9553544521331787;node spawned
100;0.9554057121276855;node appear
100;0.9554188251495361;node spawned
100;0.9554641246795654;node appear
100;0.955477237701416;node spawned
100;0.9557580947875977;node spawned
100;0.9559879302978516;node appear
100;0.956002950668335;node spawned
100;0.9564530849456787;node appear
100;0.9564681053161621;node spawned
100;0.9566993713378906;node appear
100;0.9567139148712158;node spawned
100;0.956763744354248;node appear
100;0.9567773342132568;node spawned
100;0.956824541091919;node appear
100;0.9568378925323486;node spawned
100;0.9570667743682861;node appear
100;0.9570822715759277;node spawned
100;0.9742803573608398;node spawned
100;0.974522590637207;node appear
100;0.974539041519165;node spawned
100;0.9747724533081055;node appear
100;0.974787712097168;node spawned
100;0.9748375415802002;node appear
100;0.9748508930206299;node spawned
100;0.9748992919921875;node appear
100;0.9749128818511963;node spawned
100;0.9751420021057129;node appear
100;0.9751570224761963;node spawned
100;0.9752063751220703;node appear
100;0.9752202033996582;node spawned
100;0.9778189659118652;node spawned
100;0.9781088829040527;node appear
100;0.9781250953674316;node spawned
100;0.9783623218536377;node appear
100;0.9783775806427002;node spawned
100;0.9784276485443115;node appear
100;0.9784412384033203;node spawned
100;0.9784879684448242;node appear
100;0.9785010814666748;node spawned
100;0.9785499572753906;node appear
100;0.9785630702972412;node spawned
100;0.9787919521331787;node appear
100;0.978806734085083;node spawned
100;0.9788570404052734;node appear
100;0.9788706302642822;node spawned
100;0.9789223670959473;node appear
100;0.9789361953735352;node spawned
100;0.9795267581939697;node spawned
100;0.9798324108123779;node appear
100;0.9798502922058105;node spawned
100;0.9800913333892822;node appear
100;0.980107307434082;node spawned
100;0.9803450107574463;node appear
100;0.9803609848022461;node spawned
100;0.9804122447967529;node appear
100;0.9804263114929199;node spawned
100;0.9804739952087402;node appear
100;0.9804918766021729;node spawned
100;0.9807250499725342;node appear
100;0.9807405471801758;node spawned
100;0.9807918071746826;node appear
100;0.9808049201965332;node spawned
100;0.9808506965637207;node appear
100;0.9808745384216309;node spawned
100;0.9809219837188721;node appear
100;0.9809348583221436;node spawned
100;0.9809844493865967;node appear
100;0.9809980392456055;node spawned
100;0.9920094013214111;node spawned
100;0.9922637939453125;node appear
100;0.9922916889190674;node spawned
100;0.992544412612915;node appear
100;0.9925651550292969;node spawned
100;0.9926245212554932;node appear
100;0.9926378726959229;node spawned
100;0.9926855564117432;node appear
100;0.9926986694335938;node spawned
100;0.9929451942443848;node appear
100;0.9929654598236084;node spawned
100;1.0025525093078613;node spawned
100;1.0028011798858643;node appear
100;1.002819538116455;node spawned
100;1.0030670166015625;node appear
100;1.003082513809204;node spawned
100;1.0031323432922363;node appear
100;1.0031461715698242;node spawned
100;1.0031921863555908;node appear
100;1.0032048225402832;node spawned
100;1.003265380859375;node appear
100;1.003279685974121;node spawned
100;1.003509759902954;node appear
100;1.0035245418548584;node spawned
100;1.0035736560821533;node appear
100;1.003587245941162;node spawned
100;1.0036323070526123;node appear
100;1.0036449432373047;node spawned
100;1.0036492347717285;network ready
100;1.0038182735443115;network ready -> callback handled
100;1.005155086517334;taktuk network up
100;1.1122667789459229;taktuk network updated
100;1.1428821086883545;replication order sent
100;1.2434196472167969;order to taktuk
100;1.3438701629638672;order to taktuk
100;1.4442622661590576;order to taktuk
100;1.5446879863739014;order to taktuk
100;1.6451530456542969;order to taktuk
100;1.745612382888794;order to taktuk
100;1.8460285663604736;order to taktuk
100;1.9464476108551025;order to taktuk
100;2.0468413829803467;order to taktuk
100;2.1472418308258057;order to taktuk
100;2.2476260662078857;order to taktuk
100;2.348027467727661;order to taktuk
100;2.4484713077545166;order to taktuk
100;2.5488810539245605;order to taktuk
100;2.6492316722869873;order to taktuk
100;2.7495949268341064;order to taktuk
100;2.8499529361724854;order to taktuk
100;2.9503512382507324;order to taktuk
100;3.0507166385650635;order to taktuk
100;3.151137590408325;order to taktuk
100;3.251537561416626;order to taktuk
100;3.3518972396850586;order to taktuk
100;3.4522488117218018;order to taktuk
100;3.552612781524658;order to taktuk
100;3.6529691219329834;order to taktuk
100;3.7533340454101562;order to taktuk
100;3.8536996841430664;order to taktuk
100;3.9540634155273438;order to taktuk
100;4.054427862167358;order to taktuk
100;4.154809951782227;order to taktuk
100;4.255188703536987;order to taktuk
100;4.3555755615234375;order to taktuk
100;4.455974578857422;order to taktuk
100;4.5563483238220215;order to taktuk
100;4.656729698181152;order to taktuk
100;4.757104873657227;order to taktuk
100;4.857482671737671;order to taktuk
100;4.957902431488037;order to taktuk
100;5.058295726776123;order to taktuk
100;5.158653259277344;order to taktuk
100;5.259034872055054;order to taktuk
100;5.359405755996704;order to taktuk
100;5.459782838821411;order to taktuk
100;5.560150861740112;order to taktuk
100;5.660534143447876;order to taktuk
100;5.76091194152832;order to taktuk
100;5.861351251602173;order to taktuk
100;5.961726188659668;order to taktuk
100;6.062100172042847;order to taktuk
100;6.162481784820557;order to taktuk
100;6.262856483459473;order to taktuk
100;6.3632378578186035;order to taktuk
100;6.463618516921997;order to taktuk
100;6.564006328582764;order to taktuk
100;6.664382219314575;order to taktuk
100;6.764759540557861;order to taktuk
100;6.865151643753052;order to taktuk
100;6.965534925460815;order to taktuk
100;7.065931797027588;order to taktuk
100;7.16627836227417;order to taktuk
100;7.266641139984131;order to taktuk
100;7.367001533508301;order to taktuk
100;7.467394113540649;order to taktuk
100;7.567791700363159;order to taktuk
100;7.668155670166016;order to taktuk
100;7.768516778945923;order to taktuk
100;7.868882894515991;order to taktuk
100;7.969241380691528;order to taktuk
100;8.069598913192749;order to taktuk
100;8.169960021972656;order to taktuk
100;8.270321607589722;order to taktuk
100;8.370694637298584;order to taktuk
100;8.471056699752808;order to taktuk
100;8.571418762207031;order to taktuk
100;8.671809911727905;order to taktuk
100;8.772270202636719;order to taktuk
100;8.872706890106201;order to taktuk
100;8.973087072372437;order to taktuk
100;9.073455810546875;order to taktuk
100;9.173838138580322;order to taktuk
100;9.274219989776611;order to taktuk
100;9.374601364135742;order to taktuk
100;9.474977016448975;order to taktuk
100;9.57536005973816;order to taktuk
100;9.675733089447021;order to taktuk
100;9.776113271713257;order to taktuk
100;9.876489400863647;order to taktuk
100;9.976898908615112;order to taktuk
100;10.07728910446167;order to taktuk
100;10.177670001983643;order to taktuk
100;10.278045892715454;order to taktuk
100;10.37842082977295;order to taktuk
100;10.478792667388916;order to taktuk
100;10.579177379608154;order to taktuk
100;10.679564952850342;order to taktuk
100;10.779946565628052;order to taktuk
100;10.880333423614502;order to taktuk
100;10.980708122253418;order to taktuk
100;11.081089496612549;order to taktuk
100;11.181467533111572;order to taktuk
100;11.181655406951904;erebor children appear
100;11.18222713470459;erebor children appear
100;11.182759761810303;erebor children appear
100;11.183385848999023;erebor children appear
100;11.184360265731812;erebor children appear
100;11.184978485107422;erebor children appear
100;11.185764074325562;erebor children appear
100;11.186426639556885;erebor children appear
100;11.18744421005249;erebor children appear
100;11.188287496566772;erebor children appear
100;11.189053535461426;erebor children appear
100;11.189600467681885;erebor children appear
100;11.190308332443237;erebor children appear
100;11.19114351272583;erebor children appear
100;11.19198727607727;erebor children appear
100;11.19270944595337;erebor children appear
100;11.1935133934021;erebor children appear
100;11.194421529769897;erebor children appear
100;11.195517778396606;erebor children appear
100;11.196282625198364;erebor children appear
100;11.197382688522339;erebor children appear
100;11.198264598846436;erebor children appear
100;11.19890832901001;erebor children appear
100;11.199567794799805;erebor children appear
100;11.200801610946655;erebor children appear
100;11.201963663101196;erebor children appear
100;11.202537059783936;erebor children appear
100;11.203825235366821;erebor children appear
100;11.204708814620972;erebor children appear
100;11.205344915390015;erebor children appear
100;11.206401586532593;erebor children appear
100;11.207256078720093;erebor children appear
100;11.20809817314148;erebor children appear
100;11.208999872207642;erebor children appear
100;11.210004329681396;erebor children appear
100;11.21068787574768;erebor children appear
100;11.211283922195435;erebor children appear
100;11.212295055389404;erebor children appear
100;11.213041067123413;erebor children appear
100;11.213650703430176;erebor children appear
100;11.215271234512329;erebor children appear
100;11.215821266174316;erebor children appear
100;11.216525077819824;erebor children appear
100;11.217888832092285;erebor children appear
100;11.219033479690552;erebor children appear
100;11.220567226409912;erebor children appear
100;11.221668481826782;erebor children appear
100;11.222601413726807;erebor children appear
100;11.223641633987427;erebor children appear
100;11.224647521972656;erebor children appear
100;11.22562551498413;erebor children appear
100;11.226534366607666;erebor children appear
100;11.227643489837646;erebor children appear
100;11.228711605072021;erebor children appear
100;11.230767488479614;erebor children appear
100;11.23142409324646;erebor children appear
100;11.232406854629517;erebor children appear
100;11.233333110809326;erebor children appear
100;11.234375238418579;erebor children appear
100;11.235867738723755;erebor children appear
100;11.237149000167847;erebor children appear
100;11.23798418045044;erebor children appear
100;11.239022970199585;erebor children appear
100;11.240086078643799;erebor children appear
100;11.241889715194702;erebor children appear
100;11.242560863494873;erebor children appear
100;11.243109226226807;erebor children appear
100;11.243652582168579;erebor children appear
100;11.244203090667725;erebor children appear
100;11.244796514511108;erebor children appear
100;11.24548602104187;erebor children appear
100;11.246080160140991;erebor children appear
100;11.256211042404175;erebor children appear
100;11.256757497787476;erebor children appear
100;11.257298469543457;erebor children appear
100;11.257842302322388;erebor children appear
100;11.258436679840088;erebor children appear
100;11.259114027023315;erebor children appear
100;11.259730100631714;erebor children appear
100;11.260941982269287;erebor children appear
100;11.2615065574646;erebor children appear
100;11.262224912643433;erebor children appear
100;11.262906789779663;erebor children appear
100;11.26349687576294;erebor children appear
100;11.264227151870728;erebor children appear
100;11.264923334121704;erebor children appear
100;11.265512704849243;erebor children appear
100;11.266279458999634;erebor children appear
100;11.266881942749023;erebor children appear
100;11.276213645935059;erebor children appear
100;11.27676248550415;erebor children appear
100;11.277305126190186;erebor children appear
100;11.277858018875122;erebor children appear
100;11.278444290161133;erebor children appear
100;11.279127836227417;erebor children appear
100;11.279738187789917;erebor children appear
100;11.280470132827759;erebor children appear
100;11.281067848205566;erebor children appear
100;11.281747341156006;erebor children appear
100;11.28233289718628;erebor children appear
100;11.717808723449707;new group is UP
100;11.729967832565308;new group is UP
100;11.745403528213501;new group is UP
100;11.762332201004028;new group is UP
100;11.779139518737793;new group is UP
100;11.793547868728638;new group is UP
100;11.8096923828125;new group is UP
100;11.822441577911377;new group is UP
100;11.836660385131836;new group is UP
100;11.848162412643433;new group is UP
100;11.860912322998047;new group is UP
100;11.876224517822266;new group is UP
100;11.893819332122803;new group is UP
100;11.909673929214478;new group is UP
100;11.924473524093628;new group is UP
100;11.940732479095459;new group is UP
100;11.957270622253418;new group is UP
100;11.97344422340393;new group is UP
100;11.990655660629272;new group is UP
100;12.006705284118652;new group is UP
100;12.022746801376343;new group is UP
100;12.038609504699707;new group is UP
100;12.055191040039062;new group is UP
100;12.071979761123657;new group is UP
100;12.085572957992554;new group is UP
100;12.100015640258789;new group is UP
100;12.112717151641846;new group is UP
100;12.127323389053345;new group is UP
100;12.138963222503662;new group is UP
100;12.152126789093018;new group is UP
100;12.166925191879272;new group is UP
100;12.177621841430664;new group is UP
100;12.18950343132019;new group is UP
100;12.20176100730896;new group is UP
100;12.2158362865448;new group is UP
100;12.227107763290405;new group is UP
100;12.238994836807251;new group is UP
100;12.25080132484436;new group is UP
100;12.265654563903809;new group is UP
100;12.279133319854736;new group is UP
100;12.29289174079895;new group is UP
100;12.303590774536133;new group is UP
100;12.31681489944458;new group is UP
100;12.332470178604126;new group is UP
100;12.341880083084106;new group is UP
100;12.357409000396729;new group is UP
100;12.372826099395752;new group is UP
100;12.382257223129272;new group is UP
100;12.397095203399658;new group is UP
100;12.4121835231781;new group is UP
100;12.428488492965698;new group is UP
100;12.439118146896362;new group is UP
100;12.453568696975708;new group is UP
100;12.467350006103516;new group is UP
100;12.482008934020996;new group is UP
100;12.494350671768188;new group is UP
100;12.508949518203735;new group is UP
100;12.52267050743103;new group is UP
100;12.533894062042236;new group is UP
100;12.548760414123535;new group is UP
100;12.564055919647217;new group is UP
100;12.579816341400146;new group is UP
100;12.58843207359314;new group is UP
100;12.604164600372314;new group is UP
100;12.618649959564209;new group is UP
100;12.627933979034424;new group is UP
100;12.643531084060669;new group is UP
100;12.659012079238892;new group is UP
100;12.673770666122437;new group is UP
100;12.68505072593689;new group is UP
100;12.700616836547852;new group is UP
100;12.714497327804565;new group is UP
100;12.72853136062622;new group is UP
100;12.739909410476685;new group is UP
100;12.753733396530151;new group is UP
100;12.769628763198853;new group is UP
100;12.779445171356201;new group is UP
100;12.79618239402771;new group is UP
100;12.810094594955444;new group is UP
100;12.825377702713013;new group is UP
100;12.835325241088867;new group is UP
100;12.852387428283691;new group is UP
100;12.864919185638428;new group is UP
100;12.876775979995728;new group is UP
100;12.891700267791748;new group is UP
100;12.904252767562866;new group is UP
100;12.920616626739502;new group is UP
100;12.93122911453247;new group is UP
100;12.947235345840454;new group is UP
100;12.96049690246582;new group is UP
100;12.977420330047607;new group is UP
100;12.98691701889038;new group is UP
100;13.001002788543701;new group is UP
100;13.017033576965332;new group is UP
100;13.027108192443848;new group is UP
100;13.042458534240723;new group is UP
100;13.056151390075684;new group is UP
100;13.07237720489502;new group is UP
100;13.082125425338745;new group is UP
100;13.098518133163452;new group is UP
100;13.098528385162354;all groups launched
