x;y;type
100;0.5312979221343994;taktuk connected
100;0.5324177742004395;spawn request received
100;0.5336031913757324;spawn request send to taktuk
100;0.8868710994720459;node appear
100;0.8904924392700195;node appear
100;0.895512580871582;node appear
100;0.8964152336120605;node appear
100;0.9001307487487793;node appear
100;0.9002444744110107;node appear
100;0.9055039882659912;node appear
100;0.9084699153900146;node appear
100;0.9176597595214844;node appear
100;0.9184169769287109;node appear
100;0.9428727626800537;node appear
100;0.9429121017456055;node spawned
100;0.9429638385772705;node appear
100;0.9429800510406494;node spawned
100;0.9430339336395264;node appear
100;0.9430482387542725;node spawned
100;0.9430990219116211;node appear
100;0.9431130886077881;node spawned
100;0.9431633949279785;node appear
100;0.9431777000427246;node spawned
100;0.9432241916656494;node appear
100;0.9432380199432373;node spawned
100;0.9432871341705322;node spawned
100;0.9433333873748779;node spawned
100;0.9433774948120117;node appear
100;0.9433913230895996;node spawned
100;0.9434385299682617;node appear
100;0.9434518814086914;node spawned
100;0.9435012340545654;node appear
100;0.9435148239135742;node spawned
100;0.943744421005249;node appear
100;0.9437603950500488;node spawned
100;0.9438111782073975;node appear
100;0.9438314437866211;node spawned
100;0.9438810348510742;node spawned
100;0.9439268112182617;node appear
100;0.9439404010772705;node spawned
100;0.9439940452575684;node appear
100;0.9440088272094727;node spawned
100;0.9440586566925049;node appear
100;0.9440727233886719;node spawned
100;0.9441249370574951;node appear
100;0.944138765335083;node spawned
100;0.9441845417022705;node appear
100;0.9441986083984375;node spawned
100;0.9442458152770996;node appear
100;0.9442594051361084;node spawned
100;0.9443042278289795;node appear
100;0.9443180561065674;node spawned
100;0.9443683624267578;node appear
100;0.9443819522857666;node spawned
100;0.9444293975830078;node appear
100;0.9444429874420166;node spawned
100;0.944490909576416;node appear
100;0.9445044994354248;node spawned
100;0.944551944732666;node appear
100;0.9445657730102539;node spawned
100;0.9446115493774414;node appear
100;0.9446251392364502;node spawned
100;0.9446766376495361;node appear
100;0.9446907043457031;node spawned
100;0.9541473388671875;node spawned
100;0.9543790817260742;node appear
100;0.9543952941894531;node spawned
100;0.9544446468353271;node appear
100;0.9544587135314941;node spawned
100;0.9545071125030518;node appear
100;0.9545209407806396;node spawned
100;0.9547498226165771;node appear
100;0.954766035079956;node spawned
100;0.9548144340515137;node appear
100;0.9548280239105225;node spawned
100;0.95487380027771;node appear
100;0.9548876285552979;node spawned
100;0.9549319744110107;node appear
100;0.9549458026885986;node spawned
100;0.9549896717071533;node appear
100;0.9550032615661621;node spawned
100;0.9550487995147705;node appear
100;0.9550681114196777;node spawned
100;0.9553008079528809;node appear
100;0.9553163051605225;node spawned
100;0.9658925533294678;node spawned
100;0.9661760330200195;node appear
100;0.9661922454833984;node spawned
100;0.9664247035980225;node appear
100;0.9664404392242432;node spawned
100;0.9664921760559082;node appear
100;0.9665060043334961;node spawned
100;0.9665520191192627;node appear
100;0.9665665626525879;node spawned
100;0.9666130542755127;node appear
100;0.9666264057159424;node spawned
100;0.966670036315918;node appear
100;0.9666838645935059;node spawned
100;0.9669132232666016;node appear
100;0.9669287204742432;node spawned
100;0.9669783115386963;node appear
100;0.9669921398162842;node spawned
100;0.9670398235321045;node appear
100;0.9670534133911133;node spawned
100;0.9671006202697754;node appear
100;0.9671142101287842;node spawned
100;0.971818208694458;node spawned
100;0.9721310138702393;node appear
100;0.97214674949646;node spawned
100;0.9724013805389404;node appear
100;0.9724233150482178;node spawned
100;0.9724819660186768;node appear
100;0.9724962711334229;node spawned
100;0.9725430011749268;node appear
100;0.9725565910339355;node spawned
100;0.972602367401123;node appear
100;0.9726159572601318;node spawned
100;0.9726600646972656;node appear
100;0.9726738929748535;node spawned
100;0.9727184772491455;node appear
100;0.9727318286895752;node spawned
100;0.9727752208709717;node appear
100;0.9727890491485596;node spawned
100;0.9730336666107178;node appear
100;0.9730522632598877;node spawned
100;0.9731078147888184;node appear
100;0.9731228351593018;node spawned
100;0.9749786853790283;node spawned
100;0.9752426147460938;node appear
100;0.9752650260925293;node spawned
100;0.9753239154815674;node appear
100;0.9753382205963135;node spawned
100;0.9755854606628418;node appear
100;0.9756066799163818;node spawned
100;0.9756655693054199;node appear
100;0.9756793975830078;node spawned
100;0.9757289886474609;node appear
100;0.9757430553436279;node spawned
100;0.9757890701293945;node appear
100;0.9758024215698242;node spawned
100;0.9758481979370117;node appear
100;0.9758620262145996;node spawned
100;0.9759082794189453;node appear
100;0.975921630859375;node spawned
100;0.9761655330657959;node appear
100;0.9761867523193359;node spawned
100;0.9804089069366455;node spawned
100;0.9807136058807373;node appear
100;0.9807302951812744;node spawned
100;0.9809620380401611;node appear
100;0.9809777736663818;node spawned
100;0.9810271263122559;node appear
100;0.9810452461242676;node spawned
100;0.9810926914215088;node appear
100;0.9811067581176758;node spawned
100;0.9813532829284668;node appear
100;0.9813740253448486;node spawned
100;0.9814350605010986;node appear
100;0.9814493656158447;node spawned
100;0.9814982414245605;node appear
100;0.9815115928649902;node spawned
100;0.9815559387207031;node appear
100;0.981569766998291;node spawned
100;0.9890658855438232;node spawned
100;0.9893283843994141;node appear
100;0.989349365234375;node spawned
100;0.9894087314605713;node appear
100;0.9894230365753174;node spawned
100;0.9894680976867676;node appear
100;0.9894816875457764;node spawned
100;0.9897658824920654;node appear
100;0.9897964000701904;node spawned
100;0.9898531436920166;node appear
100;0.9898674488067627;node spawned
100;0.9899132251739502;node appear
100;0.989926815032959;node spawned
100;0.9899709224700928;node appear
100;0.9899842739105225;node spawned
100;0.9902331829071045;node appear
100;0.9902541637420654;node spawned
100;0.9903159141540527;node appear
100;0.9903302192687988;node spawned
100;0.9903788566589355;node spawned
100;0.990424394607544;node appear
100;0.9904377460479736;node spawned
100;0.9904825687408447;node appear
100;0.9904963970184326;node spawned
100;0.9905407428741455;node appear
100;0.9905543327331543;node spawned
100;0.9905991554260254;node appear
100;0.9906125068664551;node spawned
100;0.9906566143035889;node appear
100;0.9906702041625977;node spawned
100;0.9907135963439941;node appear
100;0.9907271862030029;node spawned
100;0.990772008895874;node appear
100;0.9907855987548828;node spawned
100;0.9910287857055664;node appear
100;0.9910504817962646;node spawned
100;0.9911074638366699;node appear
100;0.9911212921142578;node spawned
100;0.9911658763885498;node appear
100;0.9911792278289795;node spawned
100;0.9911839962005615;network ready
100;0.9913907051086426;network ready -> callback handled
100;0.992584228515625;taktuk network up
100;1.099487543106079;taktuk network updated
100;1.1278808116912842;replication order sent
100;1.2284555435180664;order to taktuk
100;1.3289623260498047;order to taktuk
100;1.429370403289795;order to taktuk
100;1.5297908782958984;order to taktuk
100;1.6302049160003662;order to taktuk
100;1.7306694984436035;order to taktuk
100;1.8311421871185303;order to taktuk
100;1.931542158126831;order to taktuk
100;2.0319511890411377;order to taktuk
100;2.132350206375122;order to taktuk
100;2.2327451705932617;order to taktuk
100;2.333139419555664;order to taktuk
100;2.4335241317749023;order to taktuk
100;2.5339341163635254;order to taktuk
100;2.634420394897461;order to taktuk
100;2.7348685264587402;order to taktuk
100;2.835254430770874;order to taktuk
100;2.9356420040130615;order to taktuk
100;3.0360350608825684;order to taktuk
100;3.1364285945892334;order to taktuk
100;3.2368218898773193;order to taktuk
100;3.337221384048462;order to taktuk
100;3.437617301940918;order to taktuk
100;3.538010835647583;order to taktuk
100;3.6384060382843018;order to taktuk
100;3.7388036251068115;order to taktuk
100;3.8392035961151123;order to taktuk
100;3.9395911693573;order to taktuk
100;4.039979457855225;order to taktuk
100;4.140379190444946;order to taktuk
100;4.240773677825928;order to taktuk
100;4.34117865562439;order to taktuk
100;4.441564083099365;order to taktuk
100;4.541947841644287;order to taktuk
100;4.642343759536743;order to taktuk
100;4.742800951004028;order to taktuk
100;4.843255281448364;order to taktuk
100;4.9436469078063965;order to taktuk
100;5.044036149978638;order to taktuk
100;5.1444251537323;order to taktuk
100;5.244821548461914;order to taktuk
100;5.345210790634155;order to taktuk
100;5.445596694946289;order to taktuk
100;5.5459983348846436;order to taktuk
100;5.646468162536621;order to taktuk
100;5.7469236850738525;order to taktuk
100;5.847368478775024;order to taktuk
100;5.947766304016113;order to taktuk
100;6.048157215118408;order to taktuk
100;6.1486639976501465;order to taktuk
100;6.249146938323975;order to taktuk
100;6.3496010303497314;order to taktuk
100;6.450041055679321;order to taktuk
100;6.550524473190308;order to taktuk
100;6.650992393493652;order to taktuk
100;6.751400709152222;order to taktuk
100;6.8518757820129395;order to taktuk
100;6.952338218688965;order to taktuk
100;7.052740097045898;order to taktuk
100;7.15313720703125;order to taktuk
100;7.253538608551025;order to taktuk
100;7.353939771652222;order to taktuk
100;7.454353332519531;order to taktuk
100;7.554754018783569;order to taktuk
100;7.655149459838867;order to taktuk
100;7.755542516708374;order to taktuk
100;7.8559370040893555;order to taktuk
100;7.956340789794922;order to taktuk
100;8.056735754013062;order to taktuk
100;8.157124519348145;order to taktuk
100;8.257521629333496;order to taktuk
100;8.357919216156006;order to taktuk
100;8.458297491073608;order to taktuk
100;8.558668375015259;order to taktuk
100;8.659033298492432;order to taktuk
100;8.759402751922607;order to taktuk
100;8.859762907028198;order to taktuk
100;8.960126399993896;order to taktuk
100;9.060508966445923;order to taktuk
100;9.160987377166748;order to taktuk
100;9.261474370956421;order to taktuk
100;9.361868858337402;order to taktuk
100;9.462268114089966;order to taktuk
100;9.562666177749634;order to taktuk
100;9.663058042526245;order to taktuk
100;9.763456106185913;order to taktuk
100;9.863847255706787;order to taktuk
100;9.964245557785034;order to taktuk
100;10.064639806747437;order to taktuk
100;10.165033340454102;order to taktuk
100;10.26546049118042;order to taktuk
100;10.3658447265625;order to taktuk
100;10.46623706817627;order to taktuk
100;10.566622972488403;order to taktuk
100;10.66701364517212;order to taktuk
100;10.76741337776184;order to taktuk
100;10.867803573608398;order to taktuk
100;10.968200922012329;order to taktuk
100;11.068602323532104;order to taktuk
100;11.168983459472656;order to taktuk
100;11.169180631637573;erebor children appear
100;11.169753313064575;erebor children appear
100;11.170280933380127;erebor children appear
100;11.171193599700928;erebor children appear
100;11.171849489212036;erebor children appear
100;11.17248272895813;erebor children appear
100;11.17332673072815;erebor children appear
100;11.17432427406311;erebor children appear
100;11.17500901222229;erebor children appear
100;11.17557978630066;erebor children appear
100;11.176413774490356;erebor children appear
100;11.177077770233154;erebor children appear
100;11.177757501602173;erebor children appear
100;11.178708553314209;erebor children appear
100;11.179331302642822;erebor children appear
100;11.179906606674194;erebor children appear
100;11.180794715881348;erebor children appear
100;11.181549787521362;erebor children appear
100;11.182283878326416;erebor children appear
100;11.183053255081177;erebor children appear
100;11.183800220489502;erebor children appear
100;11.184545516967773;erebor children appear
100;11.185359954833984;erebor children appear
100;11.186151266098022;erebor children appear
100;11.18681812286377;erebor children appear
100;11.187517166137695;erebor children appear
100;11.188186645507812;erebor children appear
100;11.188954591751099;erebor children appear
100;11.18987512588501;erebor children appear
100;11.190659284591675;erebor children appear
100;11.191378116607666;erebor children appear
100;11.192286729812622;erebor children appear
100;11.192974328994751;erebor children appear
100;11.193629741668701;erebor children appear
100;11.194297075271606;erebor children appear
100;11.195141315460205;erebor children appear
100;11.195968627929688;erebor children appear
100;11.196839809417725;erebor children appear
100;11.197431087493896;erebor children appear
100;11.1981041431427;erebor children appear
100;11.198915958404541;erebor children appear
100;11.19943642616272;erebor children appear
100;11.200066804885864;erebor children appear
100;11.201132535934448;erebor children appear
100;11.201705694198608;erebor children appear
100;11.202590703964233;erebor children appear
100;11.203391075134277;erebor children appear
100;11.20392918586731;erebor children appear
100;11.204529047012329;erebor children appear
100;11.205361366271973;erebor children appear
100;11.206206560134888;erebor children appear
100;11.206754446029663;erebor children appear
100;11.207855463027954;erebor children appear
100;11.208709716796875;erebor children appear
100;11.209255933761597;erebor children appear
100;11.209859371185303;erebor children appear
100;11.210676670074463;erebor children appear
100;11.211224555969238;erebor children appear
100;11.211943864822388;erebor children appear
100;11.212953567504883;erebor children appear
100;11.21369981765747;erebor children appear
100;11.214691162109375;erebor children appear
100;11.217650413513184;erebor children appear
100;11.218605995178223;erebor children appear
100;11.219599485397339;erebor children appear
100;11.220624208450317;erebor children appear
100;11.221487283706665;erebor children appear
100;11.222886085510254;erebor children appear
100;11.223774909973145;erebor children appear
100;11.225515365600586;erebor children appear
100;11.226650476455688;erebor children appear
100;11.227503776550293;erebor children appear
100;11.228345155715942;erebor children appear
100;11.229553937911987;erebor children appear
100;11.230408668518066;erebor children appear
100;11.231411695480347;erebor children appear
100;11.232397556304932;erebor children appear
100;11.233583927154541;erebor children appear
100;11.234451055526733;erebor children appear
100;11.23563027381897;erebor children appear
100;11.237471342086792;erebor children appear
100;11.238344192504883;erebor children appear
100;11.239351272583008;erebor children appear
100;11.24021029472351;erebor children appear
100;11.241425514221191;erebor children appear
100;11.242460250854492;erebor children appear
100;11.243511438369751;erebor children appear
100;11.244701385498047;erebor children appear
100;11.24679708480835;erebor children appear
100;11.247655630111694;erebor children appear
100;11.249192476272583;erebor children appear
100;11.2500581741333;erebor children appear
100;11.250895977020264;erebor children appear
100;11.25220775604248;erebor children appear
100;11.255237102508545;erebor children appear
100;11.256102085113525;erebor children appear
100;11.25693655014038;erebor children appear
100;11.258145093917847;erebor children appear
100;11.259194612503052;erebor children appear
100;11.261573791503906;erebor children appear
100;11.715295314788818;new group is UP
100;11.729756593704224;new group is UP
100;11.756175518035889;new group is UP
100;11.775059700012207;new group is UP
100;11.799791812896729;new group is UP
100;11.81455659866333;new group is UP
100;11.830493927001953;new group is UP
100;11.842071771621704;new group is UP
100;11.858510255813599;new group is UP
100;11.870513439178467;new group is UP
100;11.882822036743164;new group is UP
100;11.898236513137817;new group is UP
100;11.90953016281128;new group is UP
100;11.925326108932495;new group is UP
100;11.938622951507568;new group is UP
100;11.955090999603271;new group is UP
100;11.964644193649292;new group is UP
100;11.978856563568115;new group is UP
100;11.99412202835083;new group is UP
100;12.004880666732788;new group is UP
100;12.02126932144165;new group is UP
100;12.032488584518433;new group is UP
100;12.04813551902771;new group is UP
100;12.061533689498901;new group is UP
100;12.07557487487793;new group is UP
100;12.08659315109253;new group is UP
100;12.101998329162598;new group is UP
100;12.116712808609009;new group is UP
100;12.125654220581055;new group is UP
100;12.14188814163208;new group is UP
100;12.15499210357666;new group is UP
100;12.17089581489563;new group is UP
100;12.182236194610596;new group is UP
100;12.19765853881836;new group is UP
100;12.209434032440186;new group is UP
100;12.221766471862793;new group is UP
100;12.238072633743286;new group is UP
100;12.247966289520264;new group is UP
100;12.263949632644653;new group is UP
100;12.276564359664917;new group is UP
100;12.292290925979614;new group is UP
100;12.304032564163208;new group is UP
100;12.319485425949097;new group is UP
100;12.331477403640747;new group is UP
100;12.34243893623352;new group is UP
100;12.35863184928894;new group is UP
100;12.37060284614563;new group is UP
100;12.386479377746582;new group is UP
100;12.398491144180298;new group is UP
100;12.414485692977905;new group is UP
100;12.425419330596924;new group is UP
100;12.44104290008545;new group is UP
100;12.4536771774292;new group is UP
100;12.464940309524536;new group is UP
100;12.481181621551514;new group is UP
100;12.492592334747314;new group is UP
100;12.508095741271973;new group is UP
100;12.521084308624268;new group is UP
100;12.5359365940094;new group is UP
100;12.547579526901245;new group is UP
100;12.563640832901001;new group is UP
100;12.574724197387695;new group is UP
100;12.587013959884644;new group is UP
100;12.602901458740234;new group is UP
100;12.612769842147827;new group is UP
100;12.628735780715942;new group is UP
100;12.6423659324646;new group is UP
100;12.65805959701538;new group is UP
100;12.668068647384644;new group is UP
100;12.684421300888062;new group is UP
100;12.696508407592773;new group is UP
100;12.707900047302246;new group is UP
100;12.724287033081055;new group is UP
100;12.734253168106079;new group is UP
100;12.749454498291016;new group is UP
100;12.76373028755188;new group is UP
100;12.779520511627197;new group is UP
100;12.789135932922363;new group is UP
100;12.80473017692566;new group is UP
100;12.818129539489746;new group is UP
100;12.828502655029297;new group is UP
100;12.844124555587769;new group is UP
100;12.856809377670288;new group is UP
100;12.872621059417725;new group is UP
100;12.883437871932983;new group is UP
100;12.899315357208252;new group is UP
100;12.912129402160645;new group is UP
100;12.922452449798584;new group is UP
100;12.937735080718994;new group is UP
100;12.951582431793213;new group is UP
100;12.967272758483887;new group is UP
100;12.976291179656982;new group is UP
100;12.991294860839844;new group is UP
100;13.007129907608032;new group is UP
100;13.02213191986084;new group is UP
100;13.031084537506104;new group is UP
100;13.047183513641357;new group is UP
100;13.060874700546265;new group is UP
100;13.07115387916565;new group is UP
100;13.08677053451538;new group is UP
100;13.08678150177002;all groups launched
