x;y;type
100;0.5311024188995361;taktuk connected
100;0.53169846534729;spawn request received
100;0.5327622890472412;spawn request send to taktuk
100;0.8843989372253418;node appear
100;0.8878967761993408;node appear
100;0.8912410736083984;node appear
100;0.8936538696289062;node appear
100;0.895214319229126;node appear
100;0.902310848236084;node appear
100;0.9052252769470215;node appear
100;0.9136819839477539;node appear
100;0.9199042320251465;node appear
100;0.9227149486541748;node appear
100;0.9634737968444824;node appear
100;0.9635043144226074;node spawned
100;0.9637651443481445;node spawned
100;0.9638209342956543;node appear
100;0.9638354778289795;node spawned
100;0.9638831615447998;node spawned
100;0.96392822265625;node appear
100;0.9639418125152588;node spawned
100;0.9641826152801514;node appear
100;0.9641990661621094;node spawned
100;0.9642534255981445;node appear
100;0.9642672538757324;node spawned
100;0.9643168449401855;node appear
100;0.9643301963806152;node spawned
100;0.9643771648406982;node appear
100;0.9643902778625488;node spawned
100;0.9644358158111572;node appear
100;0.9644486904144287;node spawned
100;0.9644942283630371;node spawned
100;0.9645397663116455;node appear
100;0.964552640914917;node spawned
100;0.9645965099334717;node appear
100;0.9646096229553223;node spawned
100;0.9646544456481934;node appear
100;0.9646687507629395;node spawned
100;0.9649043083190918;node appear
100;0.9649202823638916;node spawned
100;0.9649691581726074;node appear
100;0.9649825096130371;node spawned
100;0.9650280475616455;node appear
100;0.9650411605834961;node spawned
100;0.965085506439209;node appear
100;0.9650983810424805;node spawned
100;0.9651453495025635;node appear
100;0.9651584625244141;node spawned
100;0.965214729309082;node appear
100;0.9652283191680908;node spawned
100;0.965275764465332;node appear
100;0.9652886390686035;node spawned
100;0.9653332233428955;node appear
100;0.965346097946167;node spawned
100;0.9653916358947754;node appear
100;0.9654045104980469;node spawned
100;0.9654502868652344;node spawned
100;0.9654953479766846;node appear
100;0.9655089378356934;node spawned
100;0.9655532836914062;node appear
100;0.9655661582946777;node spawned
100;0.9656121730804443;node appear
100;0.9656250476837158;node spawned
100;0.9656689167022705;node appear
100;0.9656815528869629;node spawned
100;0.9657249450683594;node appear
100;0.9657375812530518;node spawned
100;0.965782880783081;node appear
100;0.9657957553863525;node spawned
100;0.9658424854278564;node appear
100;0.9658558368682861;node spawned
100;0.9659039974212646;node appear
100;0.9659185409545898;node spawned
100;0.9659638404846191;node appear
100;0.9659769535064697;node spawned
100;0.9662070274353027;node appear
100;0.9662225246429443;node spawned
100;0.9662704467773438;node appear
100;0.9662837982177734;node spawned
100;0.9663293361663818;node appear
100;0.9663422107696533;node spawned
100;0.9663867950439453;node appear
100;0.9664018154144287;node spawned
100;0.9664473533630371;node appear
100;0.9664602279663086;node spawned
100;0.966505765914917;node appear
100;0.9665186405181885;node spawned
100;0.966564416885376;node appear
100;0.9665775299072266;node spawned
100;0.9666237831115723;node appear
100;0.9666368961334229;node spawned
100;0.9666812419891357;node appear
100;0.9666943550109863;node spawned
100;0.9667398929595947;node appear
100;0.9667527675628662;node spawned
100;0.9667978286743164;node appear
100;0.9668107032775879;node spawned
100;0.9668569564819336;node appear
100;0.9668700695037842;node spawned
100;0.9669160842895508;node appear
100;0.9669287204742432;node spawned
100;0.967219352722168;node spawned
100;0.9674575328826904;node appear
100;0.9674749374389648;node spawned
100;0.9675276279449463;node appear
100;0.9675414562225342;node spawned
100;0.9677734375;node appear
100;0.9677891731262207;node spawned
100;0.9678385257720947;node appear
100;0.9678521156311035;node spawned
100;0.9678995609283447;node appear
100;0.9679129123687744;node spawned
100;0.9679572582244873;node appear
100;0.9679701328277588;node spawned
100;0.9680168628692627;node appear
100;0.9680297374725342;node spawned
100;0.9682576656341553;node appear
100;0.9682731628417969;node spawned
100;0.9683220386505127;node appear
100;0.9683353900909424;node spawned
100;0.9683806896209717;node appear
100;0.9683935642242432;node spawned
100;0.9695248603820801;node spawned
100;0.9703319072723389;node appear
100;0.9703490734100342;node spawned
100;0.9705862998962402;node appear
100;0.9706025123596191;node spawned
100;0.970653772354126;node appear
100;0.9706673622131348;node spawned
100;0.970714807510376;node appear
100;0.9707283973693848;node spawned
100;0.9707746505737305;node appear
100;0.9707872867584229;node spawned
100;0.9708318710327148;node appear
100;0.9708447456359863;node spawned
100;0.9708883762359619;node appear
100;0.9709014892578125;node spawned
100;0.9709451198577881;node appear
100;0.9709579944610596;node spawned
100;0.9712610244750977;node spawned
100;0.9715049266815186;node appear
100;0.9715263843536377;node spawned
100;0.9718070030212402;node appear
100;0.9718227386474609;node spawned
100;0.9720661640167236;node appear
100;0.9720866680145264;node spawned
100;0.9721453189849854;node appear
100;0.9721589088439941;node spawned
100;0.9751687049865723;node spawned
100;0.9757261276245117;node appear
100;0.9757421016693115;node spawned
100;0.9759876728057861;node appear
100;0.976008415222168;node spawned
100;0.9760675430297852;node appear
100;0.976081132888794;node spawned
100;0.9761261940002441;node appear
100;0.9761388301849365;node spawned
100;0.976184606552124;node appear
100;0.9761974811553955;node spawned
100;0.9762506484985352;node appear
100;0.9762639999389648;node spawned
100;0.99188232421875;node spawned
100;0.9922537803649902;node appear
100;0.992271900177002;node spawned
100;0.9925260543823242;node appear
100;0.9925425052642822;node spawned
100;0.9925956726074219;node appear
100;0.9926097393035889;node spawned
100;0.9926571846008301;node appear
100;0.9926702976226807;node spawned
100;0.9927160739898682;node appear
100;0.9927358627319336;node spawned
100;0.992966890335083;node appear
100;0.9929828643798828;node spawned
100;0.9930322170257568;node appear
100;0.9930455684661865;node spawned
100;0.9930915832519531;node appear
100;0.9931049346923828;node spawned
100;0.9931492805480957;node appear
100;0.9931623935699463;node spawned
100;0.9932162761688232;node appear
100;0.9932293891906738;node spawned
100;0.9973876476287842;node spawned
100;0.9976282119750977;node appear
100;0.9976449012756348;node spawned
100;0.9976954460144043;node appear
100;0.9977092742919922;node spawned
100;0.9977538585662842;node appear
100;0.9977669715881348;node spawned
100;0.9978108406066895;node appear
100;0.9978234767913818;node spawned
100;0.9978678226470947;node appear
100;0.9978806972503662;node spawned
100;0.9981222152709961;node appear
100;0.9981427192687988;node spawned
100;0.9982004165649414;node appear
100;0.9982140064239502;node spawned
100;0.9982585906982422;node appear
100;0.9982714653015137;node spawned
100;0.9983150959014893;node appear
100;0.9983279705047607;node spawned
100;0.9983720779418945;node appear
100;0.9983847141265869;node spawned
100;0.9983890056610107;network ready
100;0.9985454082489014;network ready -> callback handled
100;0.9989147186279297;taktuk network up
100;1.1045889854431152;taktuk network updated
100;1.119567632675171;replication order sent
100;1.220160961151123;order to taktuk
100;1.320674180984497;order to taktuk
100;1.4210963249206543;order to taktuk
100;1.5214943885803223;order to taktuk
100;1.6219089031219482;order to taktuk
100;1.7222912311553955;order to taktuk
100;1.822688341140747;order to taktuk
100;1.9230856895446777;order to taktuk
100;2.0235402584075928;order to taktuk
100;2.1239328384399414;order to taktuk
100;2.224313974380493;order to taktuk
100;2.3246941566467285;order to taktuk
100;2.4251039028167725;order to taktuk
100;2.525496006011963;order to taktuk
100;2.6258649826049805;order to taktuk
100;2.726250410079956;order to taktuk
100;2.8266584873199463;order to taktuk
100;2.9270503520965576;order to taktuk
100;3.0274622440338135;order to taktuk
100;3.127877712249756;order to taktuk
100;3.228280782699585;order to taktuk
100;3.328683614730835;order to taktuk
100;3.4291083812713623;order to taktuk
100;3.529529571533203;order to taktuk
100;3.629930019378662;order to taktuk
100;3.7303202152252197;order to taktuk
100;3.830723762512207;order to taktuk
100;3.9311695098876953;order to taktuk
100;4.031752109527588;order to taktuk
100;4.132260084152222;order to taktuk
100;4.2326624393463135;order to taktuk
100;4.333066701889038;order to taktuk
100;4.433486223220825;order to taktuk
100;4.533899307250977;order to taktuk
100;4.634464263916016;order to taktuk
100;4.734964370727539;order to taktuk
100;4.835367441177368;order to taktuk
100;4.935765743255615;order to taktuk
100;5.036168098449707;order to taktuk
100;5.136571645736694;order to taktuk
100;5.236971378326416;order to taktuk
100;5.33737850189209;order to taktuk
100;5.437822103500366;order to taktuk
100;5.538236856460571;order to taktuk
100;5.638674974441528;order to taktuk
100;5.739102840423584;order to taktuk
100;5.839510202407837;order to taktuk
100;5.939957857131958;order to taktuk
100;6.040372133255005;order to taktuk
100;6.1407787799835205;order to taktuk
100;6.241213321685791;order to taktuk
100;6.3416666984558105;order to taktuk
100;6.442095518112183;order to taktuk
100;6.542620658874512;order to taktuk
100;6.643033742904663;order to taktuk
100;6.743452072143555;order to taktuk
100;6.8438661098480225;order to taktuk
100;6.944277763366699;order to taktuk
100;7.044704437255859;order to taktuk
100;7.145135879516602;order to taktuk
100;7.245566129684448;order to taktuk
100;7.345974922180176;order to taktuk
100;7.446393251419067;order to taktuk
100;7.546786069869995;order to taktuk
100;7.6472108364105225;order to taktuk
100;7.747634649276733;order to taktuk
100;7.848024845123291;order to taktuk
100;7.948458671569824;order to taktuk
100;8.04885482788086;order to taktuk
100;8.149281978607178;order to taktuk
100;8.249708890914917;order to taktuk
100;8.350110292434692;order to taktuk
100;8.450547218322754;order to taktuk
100;8.550988674163818;order to taktuk
100;8.651409387588501;order to taktuk
100;8.7518470287323;order to taktuk
100;8.85225248336792;order to taktuk
100;8.95268964767456;order to taktuk
100;9.053085327148438;order to taktuk
100;9.15350890159607;order to taktuk
100;9.253929615020752;order to taktuk
100;9.35435700416565;order to taktuk
100;9.454734086990356;order to taktuk
100;9.555132389068604;order to taktuk
100;9.655546426773071;order to taktuk
100;9.755970001220703;order to taktuk
100;9.856362342834473;order to taktuk
100;9.956782102584839;order to taktuk
100;10.0572030544281;order to taktuk
100;10.157610893249512;order to taktuk
100;10.258031129837036;order to taktuk
100;10.358445882797241;order to taktuk
100;10.458860397338867;order to taktuk
100;10.559305191040039;order to taktuk
100;10.659733772277832;order to taktuk
100;10.760156631469727;order to taktuk
100;10.86056399345398;order to taktuk
100;10.960982084274292;order to taktuk
100;11.061399221420288;order to taktuk
100;11.161846399307251;order to taktuk
100;11.162064552307129;erebor children appear
100;11.16272783279419;erebor children appear
100;11.163254261016846;erebor children appear
100;11.16380524635315;erebor children appear
100;11.164596557617188;erebor children appear
100;11.165405750274658;erebor children appear
100;11.166284322738647;erebor children appear
100;11.167076349258423;erebor children appear
100;11.16777777671814;erebor children appear
100;11.168652534484863;erebor children appear
100;11.169363260269165;erebor children appear
100;11.170064449310303;erebor children appear
100;11.170661926269531;erebor children appear
100;11.171629428863525;erebor children appear
100;11.172306776046753;erebor children appear
100;11.17291808128357;erebor children appear
100;11.173775911331177;erebor children appear
100;11.174438238143921;erebor children appear
100;11.175110578536987;erebor children appear
100;11.176139116287231;erebor children appear
100;11.176820039749146;erebor children appear
100;11.177481889724731;erebor children appear
100;11.178241729736328;erebor children appear
100;11.178929567337036;erebor children appear
100;11.179724931716919;erebor children appear
100;11.180602788925171;erebor children appear
100;11.181140422821045;erebor children appear
100;11.182004690170288;erebor children appear
100;11.18272876739502;erebor children appear
100;11.183393239974976;erebor children appear
100;11.184098958969116;erebor children appear
100;11.184862613677979;erebor children appear
100;11.185550928115845;erebor children appear
100;11.186145782470703;erebor children appear
100;11.18716812133789;erebor children appear
100;11.187735795974731;erebor children appear
100;11.18841028213501;erebor children appear
100;11.189414262771606;erebor children appear
100;11.189945459365845;erebor children appear
100;11.190749168395996;erebor children appear
100;11.191523790359497;erebor children appear
100;11.192174434661865;erebor children appear
100;11.192781925201416;erebor children appear
100;11.193536758422852;erebor children appear
100;11.194085121154785;erebor children appear
100;11.19480562210083;erebor children appear
100;11.195560455322266;erebor children appear
100;11.196089744567871;erebor children appear
100;11.196625471115112;erebor children appear
100;11.197596311569214;erebor children appear
100;11.198179483413696;erebor children appear
100;11.199249982833862;erebor children appear
100;11.20004677772522;erebor children appear
100;11.200722217559814;erebor children appear
100;11.201353311538696;erebor children appear
100;11.203299522399902;erebor children appear
100;11.203839778900146;erebor children appear
100;11.204368352890015;erebor children appear
100;11.204946279525757;erebor children appear
100;11.205880165100098;erebor children appear
100;11.206577777862549;erebor children appear
100;11.207153558731079;erebor children appear
100;11.208087682723999;erebor children appear
100;11.210152626037598;erebor children appear
100;11.21115756034851;erebor children appear
100;11.212000608444214;erebor children appear
100;11.213334083557129;erebor children appear
100;11.214569568634033;erebor children appear
100;11.215694904327393;erebor children appear
100;11.21686053276062;erebor children appear
100;11.218159437179565;erebor children appear
100;11.219313144683838;erebor children appear
100;11.220172643661499;erebor children appear
100;11.222552299499512;erebor children appear
100;11.223398685455322;erebor children appear
100;11.224554538726807;erebor children appear
100;11.22562861442566;erebor children appear
100;11.227653980255127;erebor children appear
100;11.228632926940918;erebor children appear
100;11.229696273803711;erebor children appear
100;11.230955123901367;erebor children appear
100;11.232117652893066;erebor children appear
100;11.233525276184082;erebor children appear
100;11.234250545501709;erebor children appear
100;11.234895944595337;erebor children appear
100;11.235658645629883;erebor children appear
100;11.236321449279785;erebor children appear
100;11.23708462715149;erebor children appear
100;11.237900733947754;erebor children appear
100;11.238709211349487;erebor children appear
100;11.239634990692139;erebor children appear
100;11.240259170532227;erebor children appear
100;11.246947526931763;erebor children appear
100;11.247581243515015;erebor children appear
100;11.248204708099365;erebor children appear
100;11.248875856399536;erebor children appear
100;11.249692916870117;erebor children appear
100;11.250675916671753;erebor children appear
100;11.251299619674683;erebor children appear
100;11.252074241638184;erebor children appear
100;11.695671558380127;new group is UP
100;11.72342300415039;new group is UP
100;11.74295687675476;new group is UP
100;11.765731573104858;new group is UP
100;11.789240837097168;new group is UP
100;11.806641578674316;new group is UP
100;11.823044776916504;new group is UP
100;11.838979005813599;new group is UP
100;11.855730295181274;new group is UP
100;11.872597932815552;new group is UP
100;11.888537645339966;new group is UP
100;11.905486345291138;new group is UP
100;11.919944286346436;new group is UP
100;11.937011241912842;new group is UP
100;11.952483177185059;new group is UP
100;11.96679973602295;new group is UP
100;11.984020709991455;new group is UP
100;12.000732421875;new group is UP
100;12.01712155342102;new group is UP
100;12.032806873321533;new group is UP
100;12.050156116485596;new group is UP
100;12.066321611404419;new group is UP
100;12.082403659820557;new group is UP
100;12.100080966949463;new group is UP
100;12.117172718048096;new group is UP
100;12.134282112121582;new group is UP
100;12.151212692260742;new group is UP
100;12.167257070541382;new group is UP
100;12.183592081069946;new group is UP
100;12.200204133987427;new group is UP
100;12.216758489608765;new group is UP
100;12.232921123504639;new group is UP
100;12.24889063835144;new group is UP
100;12.266489505767822;new group is UP
100;12.282828569412231;new group is UP
100;12.299083709716797;new group is UP
100;12.315425872802734;new group is UP
100;12.331221103668213;new group is UP
100;12.34705901145935;new group is UP
100;12.363345384597778;new group is UP
100;12.37921142578125;new group is UP
100;12.395239353179932;new group is UP
100;12.412152767181396;new group is UP
100;12.42770504951477;new group is UP
100;12.443070650100708;new group is UP
100;12.459552526473999;new group is UP
100;12.473735809326172;new group is UP
100;12.490160465240479;new group is UP
100;12.5070321559906;new group is UP
100;12.52313494682312;new group is UP
100;12.540250778198242;new group is UP
100;12.557280778884888;new group is UP
100;12.572041511535645;new group is UP
100;12.588403701782227;new group is UP
100;12.602730512619019;new group is UP
100;12.618778228759766;new group is UP
100;12.635010242462158;new group is UP
100;12.64767575263977;new group is UP
100;12.659554958343506;new group is UP
100;12.671110153198242;new group is UP
100;12.682602405548096;new group is UP
100;12.691727876663208;new group is UP
100;12.705129384994507;new group is UP
100;12.718172311782837;new group is UP
100;12.727221488952637;new group is UP
100;12.740128755569458;new group is UP
100;12.75439739227295;new group is UP
100;12.763926029205322;new group is UP
100;12.777878999710083;new group is UP
100;12.7941575050354;new group is UP
100;12.804118633270264;new group is UP
100;12.819917917251587;new group is UP
100;12.833377122879028;new group is UP
100;12.849693298339844;new group is UP
100;12.860121488571167;new group is UP
100;12.87626051902771;new group is UP
100;12.889282941818237;new group is UP
100;12.899197816848755;new group is UP
100;12.915950775146484;new group is UP
100;12.929049015045166;new group is UP
100;12.944284677505493;new group is UP
100;12.955888748168945;new group is UP
100;12.972253322601318;new group is UP
100;12.983816146850586;new group is UP
100;12.999579429626465;new group is UP
100;13.012980937957764;new group is UP
100;13.027374029159546;new group is UP
100;13.039888381958008;new group is UP
100;13.051385402679443;new group is UP
100;13.067330837249756;new group is UP
100;13.079684495925903;new group is UP
100;13.096201181411743;new group is UP
100;13.107464790344238;new group is UP
100;13.123120546340942;new group is UP
100;13.135496854782104;new group is UP
100;13.14631724357605;new group is UP
100;13.162718296051025;new group is UP
100;13.175289630889893;new group is UP
100;13.19204306602478;new group is UP
100;13.201162815093994;new group is UP
100;13.201171636581421;all groups launched
